<?xml version="1.0" encoding="utf-8"?>
<!-- Generator: Adobe Illustrator 24.2.1, SVG Export Plug-In . SVG Version: 6.00 Build 0)  -->
<svg version="1.1" xmlns="http://www.w3.org/2000/svg" xmlns:xlink="http://www.w3.org/1999/xlink" x="0px" y="0px"
	 viewBox="0 0 458 458" style="enable-background:new 0 0 458 458;" xml:space="preserve">
<style type="text/css">
	.st0{fill:#71B2C8;}
	.st1{fill:#6F484C;}
	.st2{opacity:0.6;fill:#2D1416;}
	.st3{fill:#9D93C8;}
	.st4{fill:#AF8A6B;}
	.st5{fill:#784B2D;}
	.st6{fill:#DDA98F;}
	.st7{opacity:0.32;fill:#C98275;}
	.st8{fill:#B8CEA7;}
	.st9{fill:#FEDAC0;}
	.st10{opacity:0.32;fill:#FEBA91;}
	.st11{fill:#EDC86E;}
	.st12{fill:#9283B4;}
	.st13{fill:#95BF65;}
	.st14{fill:#5BC7D6;}
	.st15{fill:#A6DDE6;}
	.st16{fill:#785A5D;}
	.st17{fill:#462E53;}
	.st18{fill:#7088AE;}
	.st19{fill:#73B668;}
	.st20{fill:#3F5250;}
	.st21{fill:#9BA1A7;}
	.st22{fill:#F8F5EE;}
	.st23{fill:#746765;}
	.st24{fill:#8F8F97;}
	.st25{fill:#CAA07D;}
	.st26{fill:#8D5B5B;}
	.st27{fill:#F9B7AF;}
	.st28{clip-path:url(#SVGID_2_);fill:#8D5B5B;}
	.st29{clip-path:url(#SVGID_2_);fill:#FEDAC0;}
	.st30{clip-path:url(#SVGID_2_);fill:#FEBA91;}
	.st31{clip-path:url(#SVGID_2_);fill:none;stroke:#746765;stroke-width:5.3457;stroke-miterlimit:10;}
	.st32{clip-path:url(#SVGID_2_);fill:#A6DDE6;}
	.st33{clip-path:url(#SVGID_2_);fill:#746765;stroke:#FEDAC0;stroke-width:1.1953;stroke-miterlimit:10;}
	.st34{opacity:0.82;clip-path:url(#SVGID_2_);fill:#F9B7AF;}
	.st35{clip-path:url(#SVGID_2_);fill:none;stroke:#D07E77;stroke-width:5.3457;stroke-miterlimit:10;}
	.st36{opacity:0.12;clip-path:url(#SVGID_2_);fill:#F8F5EE;}
	.st37{opacity:0.84;clip-path:url(#SVGID_2_);fill:#FFECDB;}
	.st38{clip-path:url(#SVGID_2_);fill:#EDC86E;}
	.st39{clip-path:url(#SVGID_2_);fill:none;stroke:#FFFFFF;stroke-width:5.3457;stroke-miterlimit:10;}
	.st40{fill:#B6BF65;}
	.st41{clip-path:url(#SVGID_4_);fill:#462E53;}
	.st42{clip-path:url(#SVGID_4_);fill:#AF8A6B;}
	.st43{clip-path:url(#SVGID_4_);fill:#784B2D;}
	.st44{clip-path:url(#SVGID_4_);fill:none;stroke:#462E53;stroke-width:6;stroke-miterlimit:10;}
	.st45{opacity:0.82;clip-path:url(#SVGID_4_);fill:#D07E77;}
	.st46{clip-path:url(#SVGID_4_);fill:none;stroke:#8D5B5B;stroke-width:5.3457;stroke-miterlimit:10;}
	.st47{opacity:0.84;clip-path:url(#SVGID_4_);fill:#CCAE8D;}
	.st48{clip-path:url(#SVGID_6_);fill:#462E53;}
	.st49{clip-path:url(#SVGID_6_);fill:#8D5B5B;}
	.st50{clip-path:url(#SVGID_6_);fill:#4F2020;}
	.st51{opacity:0.82;clip-path:url(#SVGID_6_);fill:#A36A74;}
	.st52{clip-path:url(#SVGID_6_);fill:none;stroke:#584259;stroke-width:5.3457;stroke-miterlimit:10;}
	.st53{opacity:0.84;clip-path:url(#SVGID_6_);fill:#B17D7D;}
	.st54{clip-path:url(#SVGID_6_);fill:none;stroke:#462E53;stroke-width:6;stroke-miterlimit:10;}
	.st55{clip-path:url(#SVGID_6_);fill:#71B2C8;}
	.st56{clip-path:url(#SVGID_6_);fill:#7088AE;}
	.st57{fill:#FAE7A8;}
	.st58{fill:#756865;}
	.st59{fill:none;}
	.st60{fill:#D07E77;}
	.st61{fill:#609762;}
	.st62{fill:none;stroke:#785A5D;stroke-width:21.1853;stroke-linejoin:bevel;stroke-miterlimit:10;}
	.st63{fill:#908F98;}
	.st64{fill:none;stroke:#A36A74;stroke-width:21.1853;stroke-miterlimit:10;}
	.st65{fill:none;stroke:#F8F5EE;stroke-width:6.037;stroke-miterlimit:10;}
	.st66{fill:none;stroke:#785A5D;stroke-width:10.4266;stroke-linejoin:bevel;stroke-miterlimit:10;}
	.st67{opacity:0.25;fill:#3F5250;}
	.st68{fill:#D5D1D4;}
	.st69{fill:#CBC6C5;}
	.st70{opacity:0.82;fill:#D07E77;}
	.st71{fill:none;stroke:#8D5B5B;stroke-width:5.3457;stroke-miterlimit:10;}
	.st72{fill:none;stroke:#462E53;stroke-width:6;stroke-miterlimit:10;}
	.st73{opacity:0.84;fill:#F5D9C4;}
	.st74{fill:#2C1D23;}
	.st75{fill:none;stroke:#2C1D23;stroke-width:10;stroke-miterlimit:10;}
	.st76{fill:#4F2020;}
	.st77{opacity:0.82;fill:#F9B7AF;}
	.st78{fill:none;stroke:#D07E77;stroke-width:5.3457;stroke-miterlimit:10;}
	.st79{opacity:0.84;fill:#FFECDB;}
	.st80{fill:#DB9D2F;}
	.st81{fill:none;stroke:#746765;stroke-width:5.3457;stroke-miterlimit:10;}
	.st82{fill:#F8F5EE;stroke:#F8F5EE;stroke-width:21;stroke-linecap:round;stroke-miterlimit:10;stroke-dasharray:10,15;}
	.st83{opacity:0.84;fill:#CCAE8D;}
	.st84{fill:none;stroke:#8D5B5B;stroke-width:5.3457;stroke-linejoin:bevel;stroke-miterlimit:10;}
	.st85{fill:none;stroke:#F8F5EE;stroke-width:21;stroke-linecap:round;stroke-miterlimit:10;}
	.st86{fill:none;stroke:#F8F5EE;stroke-width:21;stroke-linecap:round;stroke-miterlimit:10;stroke-dasharray:9.942,14.913;}
	.st87{fill:none;stroke:#F8F5EE;stroke-width:21;stroke-linecap:round;stroke-miterlimit:10;stroke-dasharray:9.3289,13.9933;}
	.st88{opacity:0.82;fill:#63403F;}
	.st89{fill:none;stroke:#3B2F2D;stroke-width:5.3457;stroke-miterlimit:10;}
	.st90{opacity:0.84;fill:#A47478;}
	.st91{fill:none;stroke:#2C1D23;stroke-width:6;stroke-miterlimit:10;}
	.st92{fill:none;stroke:#483C40;stroke-miterlimit:10;}
	.st93{display:none;}
</style>
<g id="Layer_3">
</g>
<g id="Layer_2">
	<circle class="st0" cx="229" cy="229" r="187"/>
	<path class="st1" d="M198.09,229.1l-12.36,181.86c13.89,3.29,28.37,5.04,43.27,5.04c31.51,0,61.19-7.8,87.23-21.57l1.6-165.34
		H198.09z"/>
	<path class="st2" d="M282.56,339.22c-8.55,7.48-87.67,25.66-87.67,25.66c9.05,26.79,27.32,42.3,46.98,50.67
		c26.72-1.82,51.9-9.25,74.38-21.12l1.59-138.6C317.84,255.83,291.11,331.74,282.56,339.22z"/>
	<path class="st68" d="M231.26,125.8c86.82,0,97.35,63.77,97.35,113.17s-29.69,65.68-29.69,65.68L231.26,125.8z"/>
	<path class="st1" d="M141.43,201.3c0,19.24-14.97,34.21-14.97,54.53c0,90.88,76.98,120.81,103.71,120.81s87.67-32.07,87.67-120.81
		c0-85.53-22.45-128.3-87.67-128.3C176.71,127.53,141.43,161.74,141.43,201.3z"/>
	<ellipse class="st88" cx="265.98" cy="252.09" rx="24.06" ry="14.43"/>
	<path class="st89" d="M238.63,184.24c0,0,16.67-8.06,32.7,0.49"/>
	<path class="st89" d="M215.2,264.38c-6.41,1.07-17.11-3.21-18.59-11.49c-1.49-8.28,15.39-22.72,15.39-39.83
		c0-16.04-11.76-29.94-36.35-29.94c-14.76,0-22.99,4.81-22.99,4.81"/>
	<path class="st88" d="M129.8,238.45c-1.94,5.48-3.33,11.18-3.33,17.38c0,3.11,0.1,6.14,0.27,9.11c3.29,1.01,7.01,1.58,10.95,1.58
		c13.29,0,24.06-6.46,24.06-14.43c0-7.97-10.77-14.43-24.06-14.43C134.92,237.65,132.27,237.94,129.8,238.45z"/>
	<path class="st90" d="M135.01,255.83c0-20.31,14.97-35.28,14.97-54.53c0-38.56,33.54-72.03,84.75-73.69
		c-1.5-0.05-3.01-0.08-4.56-0.08c-53.46,0-88.74,34.21-88.74,73.77c0,19.24-14.97,34.21-14.97,54.53
		c0,90.88,76.98,120.81,103.71,120.81c1.31,0,2.69-0.08,4.15-0.23C204.44,373.47,135.01,342.13,135.01,255.83z"/>
	<ellipse class="st74" cx="252.09" cy="215.73" rx="16.04" ry="19.24"/>
	<ellipse class="st74" cx="168.69" cy="215.73" rx="16.04" ry="19.24"/>
	<path class="st91" d="M184.2,302.87c0,0,6.41,8.55,23.52,8.55s27.8-8.55,27.8-8.55"/>
	<path class="st1" d="M300.73,205.58c0,0,10.52-9.78,21.38-9.62c6.52,0.09,18.18,9.72,18.18,18.18c0,20.31-7.48,33.14-17.11,34.21
		c-9.62,1.07-17.11-6.41-17.11-6.41L300.73,205.58z"/>
	<path class="st68" d="M311.45,190.41l-17.34-17.87l-6.06,93.54l-161.27-0.13c0,74.39,31.22,114.69,84.29,114.69
		c80,0,114.36-53.08,116.51-126.34c0.1-3.5-8.76,3.5-8.76-0.14C318.82,195.31,311.45,190.41,311.45,190.41z M212.12,328.09
		c-28.56,0-39.58-23.82-43.59-37.84h90.06C252.35,305.66,238.69,328.09,212.12,328.09z"/>
	<path class="st68" d="M294.11,172.54c-15.26-6.2-112.72-12.03-145.06-3.95c-13.51,3.38,1.6-42.8,82.22-42.8
		c63.6,0,82,46.51,84.03,78.76s-11.95-8.37-11.95-8.37L294.11,172.54z"/>
</g>
<g id="Layer_4" class="st93">
</g>
</svg>
