<?xml version="1.0" encoding="utf-8"?>
<!-- Generator: Adobe Illustrator 24.2.1, SVG Export Plug-In . SVG Version: 6.00 Build 0)  -->
<svg version="1.1" xmlns="http://www.w3.org/2000/svg" xmlns:xlink="http://www.w3.org/1999/xlink" x="0px" y="0px"
	 viewBox="0 0 800 520" style="enable-background:new 0 0 800 520;" xml:space="preserve">
<style type="text/css">
	.st0{fill:#CBC6C5;}
	.st1{fill:#B8CEA7;}
	.st2{fill:#756865;}
	.st3{fill:#EDC86E;}
	.st4{fill:#DB9D2F;}
	.st5{fill:none;stroke:#A6DDE6;stroke-width:10;stroke-miterlimit:10;}
	.st6{fill:none;stroke:#A6DDE6;stroke-width:10;stroke-miterlimit:10;stroke-dasharray:19.3745,16.1454;}
	.st7{fill:#FAE7A8;}
	.st8{fill:none;stroke:#EDC86E;stroke-width:16.241;stroke-linejoin:round;stroke-miterlimit:10;}
	.st9{fill:none;stroke:#AEA7A5;stroke-miterlimit:10;}
	.st10{fill:#D5D1D4;}
	.st11{fill:#8F8F97;}
	.st12{fill:#AA3E38;}
	.st13{fill:#73B668;}
	.st14{fill:#609762;}
	.st15{fill:none;stroke:#8D5B5B;stroke-width:9;stroke-miterlimit:10;}
	.st16{fill:#D07E77;}
	.st17{fill:#F9B7AF;}
	.st18{fill:none;stroke:#B0CCB1;stroke-miterlimit:10;}
	.st19{fill:#9D93C8;}
	.st20{fill:#FFECDB;}
	.st21{fill:#B6BF65;}
	.st22{fill:#746765;}
	.st23{fill:#7088AE;}
	.st24{fill:#3F5250;}
	.st25{fill:#CAA07D;}
	.st26{fill:#5BC7D6;}
	.st27{fill:#F8F5EE;}
	.st28{fill:#784B2D;}
	.st29{opacity:0.39;fill:#AA3E38;}
	.st30{fill:#FEDAC0;}
	.st31{fill:#462E53;}
	.st32{fill:none;stroke:#462E53;stroke-width:4;stroke-miterlimit:10;}
	.st33{fill:none;}
	.st34{fill:#A36A74;}
	.st35{fill:none;stroke:#98C7D7;stroke-width:0;stroke-linecap:round;stroke-linejoin:round;}
	.st36{fill:#71B2C8;}
	.st37{opacity:0.71;}
	.st38{fill:none;stroke:#E5B868;stroke-width:0;stroke-linecap:round;stroke-linejoin:round;}
	.st39{fill:#FFFFFF;}
	.st40{fill:none;stroke:#462E53;stroke-width:40;stroke-miterlimit:10;}
	.st41{fill:#A6DDE6;}
</style>
<g id="Layer_3">
</g>
<g id="Layer_2">
	<g>
		<g>
			<g>
				<g>
					<g>
						<path class="st2" d="M607.36,269.41c-0.54-0.2-0.67,0.52-0.26,0.77l0.09-0.26L607.36,269.41z"/>
						<path class="st2" d="M607.53,268.89c0.04,0.03,0.05,0.05,0.07,0.08C607.66,268.99,607.38,268.35,607.53,268.89z"/>
						<path class="st2" d="M607.6,268.98c-0.01,0-0.03-0.02-0.07-0.08c-0.29-1.08-1.37,0.15,0.15,0.34
							C607.72,269.15,607.69,269.06,607.6,268.98z"/>
						<path class="st2" d="M632.29,218.05C630.48,217.37,631.89,219.25,632.29,218.05L632.29,218.05z"/>
						<path class="st2" d="M637.18,204.56c0.07-0.13,0.1-0.28,0.1-0.43c-0.15-0.22-0.64,0.36-0.66,0.42
							C636.55,204.73,637.11,204.75,637.18,204.56z"/>
						<path class="st2" d="M617.76,248.16c0.12,0.06,0.25,0.1,0.38,0.14C617.99,248.23,617.84,248.18,617.76,248.16z"/>
						<path class="st2" d="M611.1,272.28c0.53-0.15,0.4-0.46,0.2-0.87c-0.16-0.32,0.15-0.08,0.28-0.11
							c-0.07,0.02-1.57-1.04-1.02-1.08c0.61-0.04,1.23,0.29,1.83,0.52c0.46,0.18,1.31,0.02,0.95-0.51c-0.55-0.21-0.89,0.1-1.48-0.27
							c0.22-0.65,1.16,0.04,1.3-0.38c0.1-0.31-0.24-0.43-0.61-0.52c0.19-0.57,1.07,0.02,1.29-0.39c0.21-0.4,0.09-0.33,0.45-0.48
							c0.6-0.25,0.08-0.73-0.4-0.93c-0.54-0.23-0.62-0.35-0.48-0.77c0.46,0.17,0.88,0.38,1.31,0.58c0.6,0.27,0.03-0.59-0.1-0.69
							c-0.04-0.32,0.25-0.71,0.33-1c0.03-0.11-0.22-0.87-0.28-0.79c0.2-0.26,2.59,0.25,1.24-0.9c-0.48-0.18-0.02-0.37,0.17-0.51
							c0.52-0.15,0.46-0.6,0.34-1.03c-0.11-1.07,0.25-0.57,1-1.03c0.83-0.51-0.53-1.11-1.15-1.35c0.27,0.1,0.47-0.11,0.92,0.06
							c0.22,0.09,0.42,0.03,0.56-0.08c0.58-0.43,0.72-1.33,1.08-1.91c0.31-0.51,0.98-1.22,1.02-1.82c0.03-0.39-1.04-0.5-1.35-0.62
							c0.28,0.11,0.32-0.22,0.65-0.25c0.21,0.01,0.41,0.05,0.61,0.13c0.22,0.04,0.27-0.46,0.31-0.57c-0.11,0.33-0.16-0.4-0.13-0.48
							c0.15-0.45,0.61-0.75,0.68-1.21c0.07-0.44-0.99-0.92-0.41-1.34c0.55-0.4,1.93-0.69,1.87-1.48c-0.03-0.34-1.06-1.38,0.19-0.91
							c-0.07-0.2-0.22-0.35-0.41-0.46c1.82,0.52,1.84-1.47,2.2-2.56c0.09-0.28,0.92-2.04,0.36-2.25c0.05-0.3,0.3-0.33,0.47-0.57
							c0.28-0.4,0.41-0.89,0.57-1.35c0.25-0.75,0.79-1.18,1.03-1.92c0.06-0.19,0.37-0.73-0.09-0.9c-0.39,0-0.49-0.29-0.41-0.52
							c0.09-0.27,0.37-0.51,0.76-0.51c0.25-0.27,0.13-0.73,0.45-0.99c0.09-0.08,1.04-0.18,0.42-0.42c-0.35-0.13-0.61-0.52-0.52-0.78
							c0.2,0.04,0.86,0.45,0.9,0.44c0.38-0.11-0.04-1.49-0.01-1.77c0.03-0.35,0.45-0.61,0.71-0.93c0.25-0.31,1.12-0.82,0.47-1.25
							c-0.4-0.26-0.68-0.42-1.05-0.74c0.44-0.13,1.17-0.13,1.53-0.29c0.65-0.28-1.04-0.66-1.19-0.74c0.22-0.66,1.69,0.21,2.18,0.07
							c0.61-0.18,0.07-0.95,0.17-1.26c0.11-0.33,0.83-1.08,0.41-1.24l-0.35-0.13c0.04-0.2-0.03-0.39-0.21-0.58
							c-0.04-0.04-0.24-0.14-0.44-0.24c-0.2-0.1-0.38-0.19-0.38-0.19c0.09-0.27,2.01,0.38,2.42,0.08c0.5-0.37,0.56-1.38,0.74-1.91
							c0.21-0.64,1.39-1.96,0.36-2.57c0.83,0.12,0.94-1.47,1.16-1.86c0.06-0.1,0.86-0.58,0.57-0.69c-0.26-0.48-1.04,0-1.27-0.16
							c-0.88-0.6,1.91-0.97,1.84-1.33c-0.01,0-0.56-0.25-1.09-0.49c-0.52-0.24-1.01-0.49-0.85-0.54c0.37-0.11,2.8,1.16,2.44-0.05
							c-0.2-0.67,0.51-1.24,0.03-1.94c-0.09-0.42-0.27-1.44,0.17-1.67c0.68,0.26,1.74-0.5,0.9-0.82c1.88,0.71,1.77-1.58,0.05-2.01
							c0.48,0,1.03,0.12,1.49,0.09c0.62-0.03,0.62-0.53,0.75-0.93c0.13-0.39,0.95-1.39,0.14-1.5c0.51-0.16,0.78-0.65,0.92-1.08
							c0.27-0.81-0.08-0.81-0.97-1.2c0.15-0.46,1.26-0.01,1.65-0.24c-0.35-0.13-0.61-0.52-0.52-0.78c1.3,0.61,1.32-0.43,1.56-1.15
							c0.15-0.45-1.14-1.54-1.53-1.85c-0.41-0.33-1.06-0.45-1.42-0.76c-0.32-0.28,0.24-0.27,0.41-0.22c0.64,0.21,1.24,0.64,1.8,0.98
							c-0.07-0.04,0.98,0.71,0.95,0.51c-0.02-0.14-0.08-0.4,0.04-0.6c0.14,0.09,0.26,0.11,0.36,0.05c0.09-0.11,0.28-0.52,0.04-0.66
							c-0.16-0.1-2.49-0.74-2.4-0.8c0.44-0.29,2.46-0.18,1.29-1.18c-0.64,0.21-1.27-0.47-1.92-0.36c-0.55,0.08,0.51,1.56-0.12,1.44
							c-0.43-0.08-0.72-0.52-1.34-0.34c-0.49-0.19-0.23,0.68-0.29,0.87c-0.2,0.59,0.98,1.08,1.54,1.45c0.33,0.22,0.82,0.49,0.8,0.85
							c-0.01,0.13-0.16,0.81-0.45,0.7c-0.26-0.1-0.39-0.93-0.55-1.14c-0.32-0.42-0.65-0.55-1.17-0.75c0.83,0.32,0.23,0.87,0.57,1.38
							c-0.17,0.51-0.36,0.19-0.75,0.39c-0.33,0.17-0.36,0.64-0.48,0.93c-0.13,0.31-0.44,0.01-0.77,0.04
							c-0.48,0.03-0.64,0.51-0.86,0.78c-0.12,0.15-1.15,1.19-0.56,1.3c0.95,0.16,1.15,0.5,0.68,1.12c-0.31,0.41-1.34-0.09-0.85,0.58
							c0.52,0.71-0.95,0.56-0.48,0.96c0.28,0.24,2.22,1.07,2.27,1c-0.2,0.29-1.3-0.21-1.66-0.22c-0.55,0-0.68,0.53-1.26,0.3
							c0.07-0.21-0.31-0.2-0.35-0.13c-0.09,0.28,0.24,0.25,0.26,0.39c0.45,0.17,0.19,0.71,0.09,0.9c0.04,0.01,1.32-0.14,0.91,0.36
							c-0.5,0.6-1.62-0.38-2.03-0.18c-0.64,0.31-0.01,1.06,0.55,1.33c0.57,0.27,0.38,0.23,0.23,0.68c0.08-0.06-0.57,0.53-0.25,0.6
							c0.54,0.12,0.97,0.04,0.26,0.56c-0.91,0.26-0.47-0.76-1.22-1.04c-0.06,0.67-0.88,0.25-0.52,1.06c0.2,0.46-0.64,1.27,0.35,1.49
							c-0.45-0.2-0.76,0.1-0.5,0.46c0.27,0.37,0.7,0.53,1.05,0.83c0.67,0.58-0.7,0.33-0.97,0.28c-0.4-0.07-1.63-0.47-1.56,0.1
							c0.04,0.34,0.32,1.33-0.61,0.81c0.64,0.35,2.6,1.12,1.49,1.63c-0.58,0.27-2.06-0.66-1.75,0.31c0.05,0.15,0.71,0.95,0.45,1.04
							c-0.32,0.12-0.83-0.17-1.14-0.08c-0.29,0.08,0.11,0.5,0.01,0.8c-0.14,0.41,0.67,0.39,0.83,0.69c0.24,0.45-0.24,0.8,0.17,1.33
							c0.08,0.11,0.76,0.96,0.06,0.7c-0.57,0.16-1.01,0.56-1.16,1.04c-0.13,0.41,0.17,0.73,0.18,1.15c0.01,0.49-1.6-0.91-2.11-0.68
							c-0.45,0.21,0.68,0.77,0.8,0.86c0.19,0.14,0.36,0.67,0,0.53c0.17,0.06,1.4,0.36,1.33,0.47c-0.29,0.43-2.15-0.49-2.67-0.68
							c-0.16,0.48,0.99,0.54,0.79,1.17c-1.1-0.66-0.55,0.62-0.93,0.73c-0.33,0.1-0.68-0.34-0.88,0.04c-0.14,0.26,0,0.34,0,0.63
							c0,0.5-0.44,0.67-0.55,0.99l-0.48,1.45c0.38-0.11,1.1,0.14,1.25,0.56c0.19,0.51-0.89,0.32-1.16,0.34
							c-0.55-0.21-1.08,0.3-0.95,0.71c0.15,0.47,0.92-0.02,1.19-0.07c0.37-0.06,0.24,1.57-0.49,1.29c-1.43-0.55,0.68,1.49,0.61,1.68
							c-0.3-0.11-1.1-0.57-1.26-0.22c-0.05,0.11-0.12,1.63-0.56,0.98c-0.17,0.22,0.15,1.21-0.34,1.03
							c-0.22-0.08-1.14,0.14-0.83,0.32c0.51,0.3,1.8-0.1,2.03-0.35c0.07-0.08,0.42,0.53,0.4,0.63c-0.05,0.32-0.79,0.21-1.07,0.17
							l-1.56-0.01c0.17,0.26,0.36,0.52,0.52,0.78c0.79,0.67,0.15,0.41-0.45,0.54c-1.47,0.31-0.03,2.38-1.5,2.2
							c-0.18-0.02,0.96,0.98,0.38,0.95c-0.12-0.01-1.58-0.42-1.14,0.11c0.23,0.28,1.14,0.36,0.99,0.79
							c-0.06,0.17-0.79,0.41-0.84,0.33c0.01,0.01,0.75-0.3,0.19-0.45c-0.41-0.11-0.81,0.42-0.89,0.65
							c-0.04,0.11-0.36,0.69,0.03,0.76c0.46,0.08,1.22,0.18,1.36-0.23c0.25,0,0.69,0.24,0.8,0.43c0.19,0.33-0.48,0.41-0.71,0.47
							c-0.62,0.18-1.41,0.27-2.14,0.05c0.3,0.14,0.64,0.34,0.58,0.51c-0.06,0.17-0.78,0.04-0.99,0.09
							c-0.55,0.15-0.34,0.94-0.28,1.34c0.08,0.56,0.14,0.92,0.51,1.46c0.15,0.1,0.8,0.61,0.39,0.71c-0.28,0.07-1.69-0.71-1.69-0.79
							c-0.01,0.3,0.84,0.86,0.8,1c0.05-0.15-0.76-0.09-0.88,0c-0.19,0.14-0.47,0.68,0,0.86c0.06,0.31-0.12,1.4,0.27,1.55
							c-0.04,1.07-0.68,0.38-1.47,0.74c-0.62,0.28,0.52,0.94,0.75,0.25c-0.17,0.5,0.22,1.64,1.06,1.96
							c-0.54-0.21-0.85-0.59-1.47-0.74c-0.35-0.09-0.64-0.02-0.95-0.1c0.91,0.42,0.79,0.91,0.41,1.64
							c-0.35,0.67-1.11,0.43-1.78,0.72c0.57,0.22-0.16,1.61-0.19,1.88c-0.04,0.4,0.74,0.71,0.52,1.07
							c-0.16,0.26-3.09,1.21-1.53,1.81c-0.15,0.28-1.46,0.48-1.02,0.86c0.52,0.44,0.75,0.67,1.11,1.2
							c-0.56-0.38-1.06-0.74-1.57-1.17l1.31,1.95c-0.13-0.11-1.39-1.06-1.39-0.98c-0.03,0.75,1.34,1.26,2,1.5
							c-0.14,0.43-1.59-0.32-1.94-0.44c-0.71-0.23-0.1,0.36-0.56,0.56c-0.22,0.09-0.65-0.23-0.59,0.16
							c0.05,0.32,0.48,0.66,0.21,0.94c-0.17,0.18-0.37,0.49-0.59,0.65c-0.2,0.14-1.58,0.6-1.39,0.96c-0.03-0.05,1,0.57,1.03,0.59
							c0.81,0.51,0.98,0.64,0.51,1.1c-0.2,0.2,0.29,0.5,0.4,0.74C609.73,272.45,610.69,272.4,611.1,272.28z"/>
						<path class="st2" d="M614.76,257.17c-0.1-0.05-0.21-0.09-0.34-0.14C614.54,257.1,614.65,257.14,614.76,257.17z"/>
						<path class="st2" d="M641.81,195.69c0.24-0.25,0.54-0.69-0.17-0.68c-0.62,0.01-0.76,0.68-0.85,1.07l0.87-0.25
							C641.78,195.74,641.82,195.7,641.81,195.69z"/>
						<path class="st2" d="M644.17,199.37c0.8-0.29-0.17-0.73,0.52-0.93c0.71-0.52-0.11-1.58-0.01-2.32c0.71,0.27,0.92,0,0.86-0.54
							c-0.05-0.49-0.56-0.76-0.84-1.18c0.54,0.81,2.87-0.19,1.01-0.21c-0.74,0.21-0.26-0.65,0.24-0.69
							c0.67-0.05,1.08,0.23,1.31-0.46c0.83-0.61-1.5-0.72-1.71-0.75c-0.4-0.05-2.2-1.49-2.65-1.02c-0.28,0.3,0.5,0.68-0.1,0.94
							c-0.28,0.12-1.21,0.09-0.93,0.52c0.4,0.15,1.16,0.16,1.45,0.36c0.22,0.15,0.32,0.29,0.5,0.39c-0.57-0.15-1.53-0.24-1.06,0.31
							c0.23,0.27,1.25,0.91,1.55,1.02l-2.08-0.79c-0.15,0.44,0.85,0.4,0.85,0.83c0,0.54-0.41,0.62-0.64,1.03
							c-0.3,0.53-0.29,1.13-1.01,1.39c-0.18,0.07-0.92,0.15-0.98,0.32c0.05-0.15,1.11,0.22,1.27,0.3c-0.17,0.53-0.94,0.22-1.43,0.04
							c0.43,0.16,0.61,0.68,0.62,1.01c0.02,0.49,0.12,0.53,0.85,0.69C642.61,199.81,643.52,199.61,644.17,199.37z"/>
						<path class="st2" d="M647.27,193.05C647.1,193.56,647.79,192.66,647.27,193.05L647.27,193.05z"/>
						<path class="st2" d="M647.27,191.89c0.99-0.28-0.85-0.9-1.22-1.04c0.18,0.07,2.36,0.5,2.09,0.02c-0.23-0.4-1.13-0.27-1.03-0.8
							c0.06-0.34,0.12-0.73,0.43-1.16c0.12-0.16,0.38,0.17,0.58,0.18c0.74,0.03,1.08-1.14,0.35-1.16c0.37-0.19,0.25-0.46,0.11-0.71
							c-0.13-0.25-0.28-0.47,0.16-0.79c0.54-0.42,1.1-0.09,1.19,0.24c0.44-1.18-0.88-1.06-1.7-0.98c0.88-0.41,1.61-0.85,2.5-1.14
							c-0.33-0.03-1.13-0.07-1.74-0.09c-0.76,0.12-1.36,0.21-1.59,0.14c0.35-0.19,0.9-0.52,1.16-0.83c0.26-0.31,0.19-0.62-0.54-0.69
							c-0.42-0.04-0.33,0.31-0.39,0.64c-0.04,0.33-0.25,0.62-0.83,0.64c-1.4,0.08,1.09-1.19,0.28-1.37
							c-0.4-0.09-1.23,0.59-1.24-0.04c0.01,0.03,0.16-0.53,0.18-0.54c-0.35,0.11-0.62,0.36-0.78,0.61c0.48-0.8,0.3-1.15-0.34-1.9
							c-0.25-0.34-0.38,0.03-0.53,0.34c0.08-0.47-0.14-0.91-0.47-1.07c-0.36-0.16-0.64,0.25-1.01,0.38
							c-0.33,0.12-0.76,0.24-1.06,0.14c-0.24-0.08,0.16-0.84,0.23-1.04c-0.35,0.01-0.69,0.24-1.02,0.47
							c-0.09,0.14-0.13,0.22-0.15,0.27c-0.58,1.08-0.32,1.81-0.68,3c-0.37,1.22,0.49,0.79,1.08,1.09c0.44,0.21,1.2,1.13,1.77,0.66
							c0.27-0.29,0.39-0.55,0.43-0.81c0.04-0.25-0.08-0.54-0.16-0.83c0.12,0.04,0.47-0.32,0.87-0.68c0.41-0.36,0.88-0.71,0.91-0.79
							c-0.15,0.39-0.6,0.69-0.76,1.12c-0.08,0.22-0.02,0.64-0.02,0.64c-0.09,0.15-0.4,0.44-0.61,0.72
							c-0.21,0.28-0.34,0.53-0.21,0.56c0.16,0.04,0.33,0.37,0.52,0.52c0.19,0.14,0.54,0.14,1.42-0.34c-0.12,0.07,0.15,0.19,0.4,0.27
							c-0.03,0.09-0.05,0.17-0.05,0.21c-0.01,0.23-0.94,0.59-1.15,0.79c-0.25,0.25-0.34,0.45-0.04,0.7c0.3,0.28,0.12,0.38-0.11,0.37
							c-0.12,0-0.25,0-0.36,0c-0.12,0.03-0.17-0.03-0.24,0.17c0.2,0.06,0.36,0.07,0.49,0.07c0.13,0.02,0.24,0.03,0.36,0.04
							c0.22,0.02,0.46,0.05,0.83,0.34c0.24,0.18,1.06,1.19,0.41,1.31c-0.96,0.19-1.58-0.92-2.26-1.24c-0.11,0.32-0.83,1.5-0.33,1.86
							c0.44,0.31,1.94,0.52,2.08,1.01C645.68,192.14,646.46,192.12,647.27,191.89z"/>
						<path class="st2" d="M639.27,182.93c-0.53,0.12-0.38,0.66,0.02,0.78C639.81,183.86,639.66,183.04,639.27,182.93z"/>
						<path class="st2" d="M638.67,179.65l-0.26-0.08C637.74,179.82,638.27,180.83,638.67,179.65z"/>
						<path class="st2" d="M637.55,181.26c0.11-0.92,0.13-2.06,0.44-2.97c-0.39-0.05-1.32,0.3-1.62,0.78
							c-0.41,0.65,0.86,0.29,0.75,0.46c-0.26,0.37-1.07,0.4-1.14-0.14c-0.07-0.52,0.45-1.13,0.11-1.59
							c-1.16-1.56-0.62,1.31-1.03,1.33c-0.47,0.02-0.14-1.88-0.51-2.18c-0.63-0.5-0.75-0.65-1.08,0.39
							c-0.57-0.17-0.32-0.84-0.73-1.27c-0.28-0.29-1.01-0.56-1.2,0.22c0.48-1.29-2.05-0.64-2.58-1.33c-0.02,0-0.04-0.03-0.07-0.13
							c-0.14,0.42-0.34,1.72-0.32,2.62c-0.21,0.63,0.28,0.67,0.23,0.96c-0.02,0.16-0.31,1.4,0.16,0.98c0.27-0.24,0.1-0.63,0.44-0.53
							c0.2,0.07,0.4,0.12,0.61,0.17c0.4,0.05,0.64-0.86,1.04-1.1c1.06-0.67-0.69,1.76-0.68,1.72c-0.02,0.19,1.04-0.7,1.13-0.13
							c0.1,0.62-0.2,1.43,0.52,1.5c0.17,0.02,1.32-0.23,1.11-0.72c-0.05-0.11-0.86,0.05-0.75-0.11c0.36-0.52,1.51-0.13,1.78,0.2
							c0.14,0.17-0.06,0.33-0.2,0.41c-0.41,0.22-0.32,0.24-0.52,0.81c0.46-0.27,0.86-0.77,1.26-1.18c-0.09,0.24-0.66,1.77-0.25,1.59
							c0.36-0.15,0.58-0.8,0.96-0.85c0.14-0.02,0.13,0.45,0.2,0.56c0.42,0.65,0.99-1.69,0.81,0.37c0.12,0.92,0.38,1.31,1.18,0.74
							c0.83-0.6,0.28,1.35,0.87,0.71c0.64-0.69,1.38-1.92,1.76-2.84C641.05,178.65,638.12,180.84,637.55,181.26z"/>
						<path class="st2" d="M628.88,174.82c0.02,0.05,0.04,0.09,0.07,0.13C629,174.94,628.97,174.55,628.88,174.82z"/>
						<path class="st2" d="M613.86,172.71c-0.46-0.14-1.1,0.64-0.62,0.98C613.65,173.81,614.42,172.87,613.86,172.71z"/>
						<path class="st2" d="M609.16,171.69c0.63,0.56,1.2-0.02,0.29-0.29C609.29,171.44,609.19,171.53,609.16,171.69z"/>
						<path class="st2" d="M627.93,177.62c0.05-0.21,0.38-0.59,0.32-0.76c-0.21-0.63-0.78,0.49-0.31-0.76
							c0.16-0.43-0.12-1.64-0.59-1.22c-0.32,0.28-0.61,0.81-0.9,1.17c0.16-0.44,0.59-1.41,0.18-1.64c-0.29-0.16-1.39,0.15-1.09-0.72
							c-0.18,0.52-0.41,1.14-0.93,1.05c0.08-0.24,0.66-1.55,0.28-1.66c-0.09-0.03-0.96,0.8-1.17,0.89
							c-1.26,0.54,0.11-1.03-0.22-1.26c-0.13-0.1-0.97,0.18-1.18,0.21c-0.31,0.04-0.49,0.68-0.58,0.98
							c-0.5-0.15,0.26-1.14,0.29-1.35c0.02-0.17-0.61-0.37-0.65-0.71c-0.06-0.56,0-0.45-0.57-0.25c-0.37,0.13-0.68-0.03-0.86-0.36
							c-0.08-0.14-0.13-1.16-0.43-0.75c-0.14,0.19-0.29,1.04-0.53,1.04c-0.28,0-0.27-0.52-0.17-0.81c0.39-1.14-0.84,0.1-0.76,0.33
							c-0.15-0.16,0.04-0.93-0.41-1.07c-0.54-0.16-0.18,0.45-0.42,0.69c-0.25,0.26-0.59-1.23-0.63-1.29
							c-0.15-0.26-0.57,0.3-0.9,0.35c-0.72,0.1-1.16,0.14-1.88,0.64c-0.28,0.19-0.78,0.6-0.93,0.15c-0.15-0.45,0.02-1.54-0.3-1.64
							c-0.52-0.15-0.25-0.64-0.39-1.05c-0.37-1.06-1.81,0.95-1.85-0.77c-0.19,0.78-0.64,1.32-1.15,0.83
							c-0.43-0.4-0.23-1.62-0.55-1.72c-0.42-0.12-0.05,2.23-0.08,2.41c-0.22,1.09-0.96,1.24-1.47,1.99
							c-0.42,0.61,1.06,0.89,1.25,0.93c0.76,0.18,0.04-1.36,0.44-1.65c-0.23,0.17-0.41,0.47-0.53,0.78
							c0.14-0.44,0.33-0.93,0.64-1.17c0.49-0.38,0.51,0.38,0.37,0.77c-0.09,0.64,0.11,1.63,0.63,0.58c0.18-0.36,0.6-1.52,1.08-1.09
							c0.39,0.34-0.52,1.6-0.61,1.98c-0.13,0.56,0.73,0.62,0.97,0.69c0.95,0.28,1.45,1.06,1.97-0.58c0.23,0.7,0.58-0.12,1.06,0.02
							c0.11,0.03-0.13,0.83,0.15,0.92c0.26,0.08,0.94-1.92,1.44-0.8c0.1,0.22,0.37,1.23,0.03,1.48c-0.36,0.26-0.37-0.55-0.49-0.7
							c-0.21-0.26-0.5-0.03-0.62,0.33c-0.18,0.53-0.27,0.35-0.64,0.2c-0.24,0.69,0.68,1.35,0.92,0.66c0.47,0.14,0.49,0.77,1.08,0.84
							c0.47,0.05,1.16-0.15,1.17-0.95c0-0.37-0.16-0.88,0-1.1c0.15-0.2,1.45-0.94,1.3-0.61c-0.25,0.55-0.32,1.09-0.34,1.71
							c-0.02,0.65-0.03,0.99,0.41,1.2c0.41,0.19,0.32,0.89,0.64,1.1c-0.45-0.29,2.2-5,0.63-0.72c-0.27,0.74,0.08,1.17,0.67,0.86
							c0.28-0.15,1.24-1.57,1.29-1.56c0.16,0.05-0.95,2.14-0.46,2.28c0.19-0.56,0.57-2.46,1.23-2.34c0.7,0.12-0.4,1.72-0.21,2.17
							c0.09,0.22,0.47,0.21,0.64,0.29c0.3,0.15,0.01,0.46,0.18,0.63c0.27,0.28,1.96-0.66,1.96-0.66c-0.02,0.24-0.61,0.6-0.36,0.97
							c0.13,0.19,0.41,0.1,0.59,0.01c0.24-0.12,1.26-1.2,1.45-1.03c0.34,0.3-0.18,1.42-0.04,1.85c0.2,0.6,0.76,0.03,0.91-0.4
							C628.12,177.87,627.81,178.13,627.93,177.62z"/>
						<path class="st2" d="M607.97,168.6c0.19-0.56,0.09-1.55-0.42-1.35c-0.01-0.01-0.05,0-0.14,0.07l-0.57,1.67
							c0.1-0.29,0.28-0.52,0.51-0.68C607.01,168.55,607.48,170.04,607.97,168.6z"/>
						<path class="st2" d="M604.49,169.16c-0.22,0.15-0.79,0.89-0.36,1.06C604.47,170.32,604.92,169.29,604.49,169.16z"/>
						<path class="st2" d="M607.56,165.17c0-0.04-0.62,0.43-0.72,0.42c-0.39-0.05-0.47-0.51-0.89-0.57
							c-0.35-0.05-0.76,0.04-1.12,0.22c-0.17,0.08-0.39,0.62-0.39,0.62c-0.06-0.02,0-1.1-0.16-0.97c-0.35,0.27-0.68,1.23-0.89,1.63
							l-0.84,2.46c0.4,0.12,1.17-1.54,1.37-1.29c0.19,0.24-1.09,1.76-0.45,1.95c0.31-1.49,0.69-0.36,1.14-0.92
							c0.43-0.53,0.23-1.94,1.14-1.48c0.68,0.34-0.29,0.9-0.6,1.2c-0.41,0.39,0,1.64,0.02,2.09c0.37,0.11,1.31-1.85,1.48-2.16
							c0.33-0.64,0.82-2.2,1.55-1.98C607.52,166.19,607.48,166.02,607.56,165.17z"/>
						<path class="st2" d="M603.39,163.83c-0.38-0.22-1.01-0.34-1.48-0.04c-0.43,0.27-0.6,1.06-0.93,1.26
							c-0.14,0.07-0.24-0.46-0.45-1.08c-0.19-0.62-0.5-1.32-0.66-1.45c-0.46-0.35-1.15-0.41-1.58-0.48
							c-0.78-0.13-1.57-0.41-2.39-0.77c-0.38-0.16-0.75-0.39-1.1-0.58c-0.29,0.51-0.54,1.15-0.31,2.5c0.02,0.12,0.5,0.97,0.91,1.75
							c0.4,0.79,0.75,1.45,0.41,1.44c-0.09,0.01-0.58-0.97-0.76-1.14c-0.28-0.25-0.58-0.24-0.85-0.09
							c-0.44,0.24-0.83,0.78-1.16,1.43c-0.16,0.32-0.31,0.67-0.45,1.02l-0.13,0.35c-0.03,0.1-0.06,0.2-0.08,0.29
							c-0.08,0.3-0.41,0.98-0.12,1.33c0.43,0.52,0.51-0.37,0.5-0.41c-0.04-0.15,0.94,0.56,1.05,0.61c0.55,0.22,1.31,0.59,1.87,0.72
							c0.55,0.13,0.24-0.53,0.58-0.49c0.58,0.07,0.78,0.1,0.79-0.44c0.01-0.21-0.02-0.3-0.06-0.4c-0.04-0.1-0.09-0.2-0.16-0.31
							c-0.15-0.21-0.39-0.46-0.86-0.75c-0.3-0.2-1-0.5-0.88,0.07c0.27,0.44-0.72-0.15-0.77-0.21c-0.07-0.06-0.3-0.35-0.46-0.69
							c-0.16-0.33-0.24-0.72-0.05-0.81c0.12-0.05,0.58,0.72,0.71,0.79c0.42,0.29,0.94,0.37,1.33,0.4c0,0,0.35-0.2,0.66-0.19
							c0.31-0.01,0.59,0.19,0.64,0.53c0.02,0.1-0.36,0.05-0.18,0.35c0.19,0.2,0.97-0.26-0.1-1.28c-0.39-0.51-0.14-0.47-0.21-0.95
							c-0.09-0.75-0.11-0.36-0.39-0.88c0.07,0.12,0.58,0.35,0.88,0.64c0.2,0.27,0.36,0.48,0.41,0.54c0.58,0.78,0.79,0.62,1.16,0.72
							c0.37,0.5,0.37,0.11,0.3-0.49c-0.08-0.6-0.38-1.48-0.37-1.85c0.01-0.2,0.37-0.02,0.47,0.04c0.21,0.12,0.14,0.72,0.14,0.83
							c0.03,0.65,0.12,1.56,0.59,1.22c0.47-0.29,1-1.03,1.57-1.35c0.57,0.17,0.71-0.57,1.25-0.56c0.2,0-1,1.39-1.09,1.54
							c-0.23,0.4-0.61,1.25-0.35,1.63c0.39,0.58,0.99-0.17,1.03-0.79c0.02-0.33-0.14-0.76-0.06-1.09c0.08-0.36,0.35-0.15,0.4,0.01
							C603.5,166.55,604.07,164.23,603.39,163.83z"/>
						<path class="st2" d="M591.73,172.32C591.09,171.84,592.66,173.16,591.73,172.32L591.73,172.32z"/>
						<path class="st2" d="M592.47,171.63c-0.19,0.3-0.68-0.34-0.97-0.24c-0.41,0.13-0.03,0.73,0.23,0.92
							c0.33,0.3,2.72,1.79,2.49,0.76c0.49,0.15,0.8,0.37,0.58,0.74c0.73,0.22,0.36-1.47,0.3-1.7c-0.25-0.9-0.88-1.72-2.08-2.06
							C590.88,169.44,592.94,170.9,592.47,171.63z"/>
						<path class="st2" d="M588.14,180.28c-0.32-0.1-0.36-0.08-0.42,0.15l-0.07,0.26C587.94,180.66,588.15,180.52,588.14,180.28z"/>
						<path class="st2" d="M587.34,188.76c0.02,0.02,0.06,0.04,0.12,0.09c0.21,0.19,0.28,0.26,0.3,0.28
							c0.34,0.32,0.64,0.56,0.77,0.04c0.09-0.34-1.23-0.8-1.5-0.7C586.98,188.49,587.19,188.65,587.34,188.76z"/>
						<path class="st2" d="M587.34,188.76c-0.18-0.11,0.46,0.43,0.42,0.37c-0.1-0.09-0.2-0.19-0.3-0.28
							C587.48,188.86,587.42,188.82,587.34,188.76z"/>
						<path class="st2" d="M589.57,189.59c-0.09,0.33-0.5,0.46-0.6,0.84C589.59,191.24,589.51,189.82,589.57,189.59z"/>
						<path class="st2" d="M594.37,173.97c-0.15,0.57-1.49,0.17-1.44,0.6c0.04,0.36,0.37,0.7,0.47,1.05c0,0,0.06,0.82-0.14,0.56
							c0.24,0.31,0.52,0.43,0.92,0.55c-0.73-0.22-1.25-0.28-1.98-0.32c0.37,0.47,1.52,1.46,0.97,1.91c-0.4,0.32-1.54,0.11-1.74-0.44
							c-0.09-0.03-0.28-0.38-0.36-0.11c-0.22,0.08-0.03,0.42,0.05,0.55c0.16,0.28,0.54,0.84,0.97,0.93
							c0.61,0.13,1.18,0.63,0.84,1.13c-0.22,0.33-1.39-0.2-1.82-0.03c-0.21,0.09,0.02,0.71,0.23,1c0.39-0.06,0.78-0.15,1.09,0.04
							c0.77,0.45,0.44,0.94-0.31,0.67c0.27,0.12,0.61,0.42,0.41,0.59c-0.23,0.2-0.91,0.02-1.22-0.05c-1.1-0.23-2.18-0.61-3.26-0.94
							c0.77,0.23,1.34,1.34,2.04,1.37c0.34,0.02,0.82-0.22,1.2,0c0.39,0.23-0.43,0.49-0.53,0.51c-0.6,0.11-2.12-0.33-2.03,0.41
							c0.05,0.4,1.89-0.09,2.04-0.13c1.5-0.37,0.58,0.65,0.47,1.07c-0.09,0.37,0.3,1.05-0.16,1.28c-0.22,0.11-0.97-0.16-1.24-0.2
							c-0.37-0.05-1.96-0.32-2.1,0.04c-0.09,0.24,2.03,0.49,1.95,0.63c-0.03,0.06-0.53,0.03-0.32,0.3c0.12,0.16,0.84,0.14,1.12,0.3
							c1.07,0.63-0.35,0.71-0.91,0.54c0.55,0.17,1.43,0.74,0.41,0.72c-0.92-0.02-2.76-0.22-3.58-0.62
							c-0.03-0.01,0.34,0.73,0.35,0.75c0.32,0.47,0.73,0.81,1.19,1.21c1.45-0.09-0.79,0.83-0.78,0.79
							c-0.01,0.04,1.74-0.06,0.96,0.48c-0.26,0.18,0.33,0.81,0.26,1.09c-0.08,0.31-0.92,0.21-0.99,0.48
							c0.09-0.34,2.49,0.59,1.42,1.05c-0.62,0.27-2.15-0.24-2.96-0.28c0.31,0.28,0.62,0.57,0.93,0.85c0.17,0.22,0.61,0.74,1,0.76
							c0.05,0,0.06-0.51,0.22-0.59c0.65-0.33-0.1,1.41-0.1,1.41c-0.06,0.24-0.16,1.23-0.78,0.85c-2.01-1.22,0.27,1.77-0.47,2.17
							c-0.4,0.22-1.68-0.34-2.1-0.47c-0.8-0.24-2.08-0.51-2.35-1.28c-0.23-0.67,0.12-0.53,0.85-0.31c0.51,0.15,1.28-0.6,1.42-0.43
							c-0.39-0.5-1.19-0.79-1.79-1.1c0.34,0.1,3.21,0.85,2.48,0.28c-0.62-0.48-1.61-0.69-1.88-1.31c-0.21-0.47-0.3-1.82,0.7-1.41
							c-0.9-0.21-0.18-0.73,0.29-0.76c0.16-0.03,1.51-0.26,0.82-0.58c-0.56-0.26-1.27-0.61-0.68-1.07c0.67-0.52,0.01-0.41,0.19-1.07
							c1.15-0.42,0.82-2.54,1.13-3.41c0.1-0.28,0.26-0.77,0.68-0.84c0.2-0.04,0.92,0.37,0.9,0.44c0.06-0.23-0.65-0.85-0.75-1.12
							c-0.18-0.49,0.36-0.8,0.74-1.04c1.3-0.08,0.12-0.34-0.09-0.68c-0.12-0.19-0.03-0.51,0.07-0.66c0.15-0.22,0.5,0.2,0.57,0.21
							c0.09,0-0.55-0.96-0.42-1.14c0.38-0.5,1.49-0.64,2.1-0.93c0.98-0.45-0.86-0.61-1.27-0.76c-0.81-0.28,0.67-0.72,0.17-1.08
							c1.19,0.39,0.34-1.55,0.77-1.46c0.61,0.13,1.07,0.56,1.69,0.18l0.86-0.54c-0.6-0.03-1.24-0.13-1.84-0.13
							c-0.12,0-0.77,0.1-0.79-0.04c-0.05-0.28,0.13-0.31,0.43-0.22c0.07-0.13,0.03-0.78,0.31-0.75c0.52,0.06,0.63,0.09,0.74-0.35
							c-0.08-0.23-0.36-0.67,0.14-0.52c0.04-0.9,0.11-0.22-0.67-0.73c0.24,0.16,0.78-1.58,1.72-0.37c0.59,0.18,1.06-0.03,1.42,0.43
							l0.71,0.22C594.01,173.88,594.05,173.87,594.37,173.97z M589.99,180.56c-0.36,0.31,0.28,0.68,0.67,0.79
							c0.2,0.06,0.41,0.05,0.61,0.02C590.85,181.05,590.54,180.36,589.99,180.56z"/>
						<path class="st2" d="M582.33,202.3c-0.34-0.18-0.81-0.25-1.03-0.04C581.21,202.65,582.93,202.6,582.33,202.3z"/>
						<path class="st2" d="M581.67,200.01c0.17,0.33,0.6,0.44,0.76,0.89c0.29,0.83-0.34,0.15-0.78,0.06
							c-0.28-0.06-1.57,0.1-0.95,0.5c0.46,0.31,1.28,0.44,1.82,0.6c1.47-0.54,0.54,0.83,0.5,0.83c0.29,0,0.73,0.11,1.14,0.23
							c0.09,0.09,0.16,0.15,0.22,0.2c0.29,0.27,0.76,0.66,1.03,0.52c0.51-0.27-0.03-0.64-0.47-0.77c-0.12-0.04-1.44-0.59-0.85-0.74
							c0.46-0.11,1.05,0.37,1.53,0.23c0.46-0.13,0.29-0.59,0.22-0.89c-0.14-0.58,0.18-1.09,0.24-1.63c0.09-0.79-1.59-1.2-2.32-1.29
							C582.81,198.64,581.1,198.95,581.67,200.01z"/>
						<path class="st2" d="M584.37,203.32c-0.09-0.09-0.17-0.16-0.22-0.2C583.83,203.02,584.83,203.78,584.37,203.32z"/>
						<path class="st2" d="M581.34,211.04c0.3,0.39,1.72,0.72,1.4,0.26C582.5,210.97,581.44,210.64,581.34,211.04z"/>
						<path class="st2" d="M580.22,212.4c0.28,0.8,1.98,0.68,1.88,0.14C582.01,212.04,579.67,211.7,580.22,212.4z"/>
						<path class="st2" d="M580.22,212.4C579.93,212.03,580.44,213.03,580.22,212.4L580.22,212.4z"/>
						<path class="st2" d="M572.44,238.05c0.59,0.77,1.6,0.27,0.79-0.26C572.73,237.47,571.97,237.45,572.44,238.05z"/>
						<path class="st2" d="M564.19,247.71l-0.07,0.26C564.39,248.64,565.38,248.07,564.19,247.71z"/>
						<path class="st2" d="M580.24,202.49c0.11,0.31,0.63,1.53-0.23,1c-0.62-0.38-0.72,0.61-0.78,0.85
							c-0.22,0.81-0.54,1.69-0.41,2.58c0.14,0.93-0.87,1.27-1.04,2.07c-0.15,0.68,1.62,1.25,0.29,1.33
							c-0.74-0.22-0.48,1.41-0.67,1.32c-0.63-0.29-0.87,1.66-0.98,2.11c-0.2,0.77-0.65,0.97-0.84,1.76
							c0.12-0.11,0.54-0.36,0.78-0.13c0.24,0.23-0.18,0.77-0.23,0.97c-0.09,0.33,0.35,0.14,0.25,0.53
							c-0.07,0.27-0.49,0.42-0.85,0.31l0.14-0.52c-0.85,0.24-0.95,0.57-0.88,1.28c0.07,0.7-0.58,0.39-0.7,0.88
							c-0.15,0.65,0.51,1.11,0.7,1.73c0.17,0.55-0.86,0.43-1.23,0.63c-0.92,0.51-0.14,1.76-0.69,2.55
							c-0.31,0.45-0.37,0.42,0.33,0.56c0.46,0.09-0.49,0.9-0.56,1.1c-0.28,0.85,0.08,0.89-1.12,0.79c-0.4-0.04,0.17,0.91,0.31,1.03
							c0.61,0.52,1.03,0.29,0.84,1c-0.52,0.44,0.12,0.51,0.64,0.48c0.35,0.11,2.35,0.54,2.24,0.96c-0.12,0.46-1.76-0.33-2.04-0.45
							c-0.22-0.1-1.35-0.56-1.28-0.84c-0.62-0.32-1.88-0.46-0.85,0.31c-0.45,0.26-0.78,0.06-0.91,0.57c0.34,0.44,0.15,1,0.02,1.39
							c-0.22,0.68-0.78,0.91-0.59,1.76c0.06,0.29,0.16,0.61,0.45,0.78c-0.61-0.14-1.3-0.12-1.57,0.28c-0.05,0.08,1.78,0.62,2.01,0.7
							c-0.81-0.25-1.74-0.44-2.02,0.26c-0.17,0.44-0.63,1.33,0,1.68c-0.46-0.02-0.81,0.3-0.99,0.61c-0.29,0.5,0.05,0.4,0.47,0.65
							c0.03,0.02-0.87,0.38-0.92,0.5c-0.11,0.27,0.77,0.95,0.97,1.16c0.12,0.13,0.64,0.63,0.73,0.27c0.09-0.33,0.47-0.32,0.52-0.52
							c-0.13,0.52-0.29,0.91-0.92,1.14c-0.55,0.2-0.94-0.45-1.33-0.34c-0.51,0.14,0.64,0.91,0.75,1.06c0.23,0.3-0.76,0.46-0.93,0.52
							c-0.86,0.32-1.3,1.21-0.28,1.73c0.17,0.09-0.69,1.35-1.11,0.82c0.19,0.24,0.79,0.45,0.71,0.78c-0.1,0.37-0.62,0.44-0.92,0.66
							c-0.45,0.33,0.99,0.46,1.25,0.54c-0.33-0.1-0.43,0.44-0.99,0.26c-0.16-0.05-1.13-0.35-1.15-0.06c0.04,0.14,0.14,0.27,0.3,0.36
							l-0.14,0.52c-0.12,0.04-0.02,0.19,0.03,0.26c0.34,0.5,0.98,0.98,1.55,1.32c0.37,0.22,1.03,0.19,0.93,0.6
							c-0.58-0.18-1.18-0.4-1.77-0.53c-0.46-0.1-0.31,0.2-0.59,0.3c-0.28,0.1-0.82-0.32-0.99-0.06c-0.06,0.1-0.28,0.54-0.08,0.65
							c0.3,0.16,1.15-0.13,1.38,0.15c0.25,0.32-0.3,0.49-0.56,0.52c-1.01,0.13-1.02-0.35-1.27,0.62c-0.59,2.01,1.07,1.29,2.35,1.29
							c0.73-0.09,1.49,0.18,2.2,0.38c1.45,0.44-0.36-0.82-0.34-0.92c0.02-0.06,1.14,0.31,1.25,0.35c0.08-0.32-0.65-0.42-0.74-0.83
							c-0.15-0.63,0.17-1.15,0.1-1.77c-0.03-0.28-0.29-1.08,0.39-0.87c0.24,0.07,1.08,0.28,1,0.59c0.16-0.63,0.56-1.37,0.43-2.06
							c-0.11-0.59-1.4-0.78-1.95-0.95c0.59,0.18,0.37-0.44,0.39-0.61c0.02-0.17,0.88,0.15,0.88,0.15c0.41,0.13,2.24,0.24,1.44-0.52
							c-0.48-0.45-1.25-0.19-1.79-0.26c-0.44-0.06-0.61-0.97-0.24-0.93c0.07,0.01,0.59,0.48,0.74,0.26c0.13-0.2-0.23-0.64,0.26-0.75
							c0.33-0.07,0.57-0.05,0.92,0.06c-0.56-0.17-3.72-0.84-2.57-1.67c0.28-0.2,3.49,1.24,3.48,1c-0.02-0.55-1.53-0.97-1.79-1.31
							c0.13,0.17,1.55-0.05,1.7-0.14c0.76-0.48-1.32-0.15-1.09-0.11c-0.33-0.06-0.04-0.69-0.18-0.73c-0.49-0.15-0.27-0.26-0.18-0.62
							c0.36-0.02,1.95,0.19,1.35,0.69c0.55,0.25,1.77-0.1,1.19-0.65c-0.39-0.37-1.93-0.54-2.06-1.07c-0.01-0.04,1.57,0.71,1.74,0.36
							c0.31-0.66-1.22-1.02-1.76-1.18c0.12-0.45,0.65,0.1,0.84-0.32c0.15-0.32,0.22-0.56,0.53-0.8c0.31-0.24,0.74-0.54,1.22-0.6
							c0.36-0.04,0.71,0.13,0.77-0.28c0.04-0.26-0.17-0.63,0.17-0.8c0.21,0.07,0.3,0.04,0.29-0.09c0.06-0.42-0.2-0.7-0.32-1.11
							c-0.08-0.27-0.49-1.13-0.12-1.26c0.12-0.04,0.84,0.29,0.84,0.29c-0.1-0.12-1.18-0.97-1.3-0.92c0.48-0.17-0.18-0.86,0.06-0.94
							c0.45-0.16,1.3,0.22,1.78,0.36c-0.35-0.11-0.49-0.2-0.7-0.46c0.4,0.52,1.3-0.77,1.37-0.9c0.26-0.45,1.03-1.07-0.06-1
							c-1.17-0.36-0.28-0.52-1.22-1.22c-0.13-0.1-0.67-0.62-0.33-0.71c0.31-0.08,0.48,0.34,0.69,0.37c0.52,0.06-0.24-0.95,0.43-0.82
							c0.49,0.09,0.83,0.41,1.03,0.1c0.16-0.24,0.71,0.18,0.85-0.39c-0.14-0.41-0.26-0.62,0.2-0.79c-0.46-0.14-2.15-0.88-2.5-0.59
							c-0.49,0.4-1.95-0.16-1.06-0.49c1.57-0.09-0.6-0.56-0.26-1.16c0.16-0.29,0.6-0.18,0.94-0.04c0.56,0.23,0.01,0.61,0.31,0.77
							c0.09,0.05,2.35,0.12,2.31,0.27c0.04-0.17-1.37-0.8-0.78-0.88c0.33-0.05,0.59-0.05,0.86-0.19c-0.48-0.15-0.28-1.15,0.06-1.1
							c0.44,0.06,1.09,0.48,1.34,0.12c-0.57-0.17-0.02-0.5-0.33-0.66c-0.21-0.11-0.66-0.25-0.87-0.19c-0.07,0.1-0.16,0.17-0.29,0.23
							c-0.46-0.22-1.44-1.4-1.73-1.77c0.41,0.15,1.1,0.28,1.49,0.17c0.14-0.56,0.75-0.16,0.88-0.38c0.21-0.36-2.18-1.25-1.78-2.08
							c-0.12,0.67,1.88,1.11,2.53,1.22c0.85,0.14,0.38-0.4-0.17-0.57c0.54,0.16,2.44,0.66,1.34-0.16c-1.82-1.07,0.43-0.16,0.1-0.89
							c-0.43-0.96-1.23-0.67-1.39-0.07c-0.13,0.51-1.44-0.6-1.71-0.8c0.49-0.08,1.04-0.26,1.56-0.25c0.5,0,0.97,0.25,1.46,0.27
							c0.36,0.02,0.79-0.28,1.02-0.21l-1.35-0.41c0,0,1.17,0.04,1.27,0.02c0.47-0.09,0.08-0.59-0.15-0.81
							c0.23,0.07,1.08-1.04,1.12-1.01c-0.73-0.62-2-0.34-2.77-0.73c-0.25-0.13-0.09-0.54-0.01-0.66c0.08-0.12,0.47,0.09,0.65,0.03
							c0.74-0.27-0.54-0.85-0.67-1.05c-0.07-0.12,0.03-0.9,0.16-0.86c0.2,0.06,0.49,0.94,1.04,1.14c0.23,0.08,1.84,0.15,1.87,0.18
							c-0.18-0.23-1.89-1.15-2.21-1.25c-0.3-0.39,0.23-0.78,0.68-0.64c0.49,0.15,2.07,0.55,2.04-0.14c-0.01-0.3-0.23-0.62,0.05-0.85
							c0.17-0.14,0.45,0.19,0.52,0.14c0.34-0.26-0.93-1.35-1.07-1.64c-0.09-0.18,0.88-0.54,1.07-0.68c0.06-0.23,1.03-0.35,0.15-0.77
							c-0.61-0.28-1.4-0.33-1.23-0.98c0.77,0.23,2.64,1.18,2.27,0.12c0.17-0.65-2.42-0.83-2.77-1.39c-0.08-0.13,2.39,0.28,2.39,0.47
							c-0.01-0.43-2.1-1.08-2.49-1.44C581.16,202.5,579.84,201.37,580.24,202.49z"/>
						<path class="st2" d="M574.49,256.98c0.22-0.15,0.79-0.89,0.36-1.06C574.5,255.82,574.06,256.85,574.49,256.98z"/>
						<path class="st2" d="M577.08,262.78C576.7,263.05,577.72,262.58,577.08,262.78L577.08,262.78z"/>
						<path class="st2" d="M567.12,252.87c0.03-0.16-1.58-0.34-1.71-0.13c0,0-0.01,1.11-0.7,0.72c-0.23-0.16,0.23-0.45-0.14-0.57
							c-0.66-0.27-1.75,0.18-2.38,1.02c-0.61,0.79-1.09,2.11-1.1,2.85c0.22,0.04,0.44,0.07,0.64,0.08c0.34,0.02,0.99-0.2,1.53-0.35
							c0.55-0.14,0.96-0.22,0.99,0.17c0.04,0.29-0.8,0.59-0.79,0.93c0.03,0.36,1.03,0.59,1.46,0.72c0.88,0.26,1.05-0.17,1.74-0.14
							c0.34,0.01,0.54,0.11,0.72,0.24c0.11,0.11,0.19,0.27,0.33,0.41c0.28,0.31,1.84,1.69,2.19,0.66c0.05-0.16,0.54-1.39,0.65-0.85
							c0.11,0.5-0.23,0.89-0.22,1.37c-0.01-0.27,0.85-0.83,0.77,0.28c-0.04,0.52,0.4-0.23,0.62-0.16c0.46,0.14,0.43,0.89,0.79,1.15
							c0.22,0.15,0.48-0.61,0.68-0.3c0.3,0.46,0.37,0.95,0.91,1.11c0.28,0.08,0.74-0.36,0.8-0.35c0.42,0.13,0.68,0.59,1.15,0.73
							c0.43,0.13,0.56,0.65,1.04,0.31c0.2-0.03,0.38-0.14,0.54-0.32c0.02-0.05-0.47,0.01-0.53-0.24c-0.09-0.36-0.11-0.78-0.13-1.17
							c-0.03-0.67-0.14-1.59,0.06-2.29c0.12-0.44,0.16-0.91-0.02-1.25c-0.16-0.3-0.62,0.62-0.74,0.74
							c-0.55,0.54-0.34-0.65-0.67-0.61c-0.1,0.01-0.4,0.36-0.36,0.49c-0.11-0.35-0.04-1-0.35-1.19c0,0-1.44,1.77-1.74,1.9
							c-1.12,0.49,0.1-0.87-0.14-0.94c-0.08-0.02-0.54,0.55-0.81,0.56c-0.24,0.01-0.19-0.39-0.17-0.61
							c0.05-0.51,0.09-1.03,0.14-1.55c-0.15,0.11-1.42,1.09-1.46,0.98c-0.25-0.78,1.33-1.38,1.27-1.75
							c-0.08-0.47-2.02,0.54-1.6-0.68l-0.53,1.54c-0.53-0.16,0.38-1.25-0.51-1.09c-0.44,0.08-0.59,0.13-0.79,0.7
							c-0.25,0.09-0.64-0.18-0.84-0.24c0.39,0.11,0.71-0.21,0.82-0.5c0.1-0.29,0.1-0.5-0.37-0.25c-0.3,0.13,0.08-0.48,0.04-0.55
							c-0.12-0.18-0.61,0.08-0.92,0c-0.12-0.04,0.38-0.59,0.19-0.58c-0.01-0.03-0.13-0.01-0.41,0.09c-0.37,0.12-1.48,0.74-1.64,0.75
							c-0.19-0.02,0.58-0.68,0.11-0.56c-0.11,0.02-0.45,0.32-0.62,0.29c-0.09-0.02,0.41-0.43,0.93-0.74
							c0.53-0.32,1.09-0.53,1.25-0.54c-0.02,0.15-1.22,0.94,0.35,0.42c0.06-0.05,0.48-0.53,0.48-0.57c0.01-0.11-0.15-0.28,0.41-0.23
							c-0.01-0.08,0.04-0.08-0.17-0.2c-0.25-0.15-0.49-0.18-0.69-0.08C567.25,252.6,567.1,252.79,567.12,252.87z"/>
						<path class="st2" d="M595.34,265.46C595.22,265.81,595.6,265.54,595.34,265.46L595.34,265.46z"/>
						<path class="st2" d="M578.91,258.67c0.27,0.15,1.06,1.47,0.29,1.25c-0.26-0.79-1.48,1.46-1.36,0.69
							c0.07-0.45,0.25-1.02-0.2-1.15c-0.12-0.03-0.39-0.11-0.48,0.15c-0.38,1.11,0.8,1.51,0.93,2.21c0.09,0.49-0.51,1.4-0.06,1.61
							c0.32,0.15,0.7,0.25,1.06,0.28c0.36,0.03,1.05-0.31,1.26,0.15c0.14,0.3,0.14,0.43,0.63,0.07c-0.15-0.04,0.75,0.1,0.48,0.3
							c0.08-0.06,0.59-0.63,0.59-0.61c0.07,0.23-0.64,0.86-0.42,1.13c0.11,0.14,0.75-0.12,0.88-0.17c0.4-0.15,1-0.94,0.27-0.89
							c0.26-0.76,0.39,0.17,0.69-0.13c0.16-0.16,0.24-1.33,0.31-1.31c0.53,0.16-0.28,1.55-0.22,1.99c0.06,0.42,0.2,0.82,0.38,1.16
							c0.11,0.2,1.49,1.23,1.45,1.25c0.05-0.04,0.18-1.13,0.27-1.32c0.57,0.17,0.03,1.02,0.36,1.25c0.41,0.29,0.86-0.05,1.3-0.31
							c0.44-0.26,0.55-0.09,0.18,0.38c-0.16,0.46,0.47,0.52,0.66,0.58c0.2,0.06,0.84,0.4,1.09,0.1c0.11-0.14,0.53-0.89,0.57-0.43
							c0.13,1.25,0.39,1.24,0.78-0.11c0.46,0.14-0.17,0.86-0.1,1.13c0.27,0.08,0.55,0.79,0.79,0.78c0.26-0.01,0.36-1.89,0.96-0.92
							c0.32,0.51-0.21,0.98,0.46,1.18c0.43,0.13,0.54-0.64,1.14-0.82c0.1-0.07,0.86-0.88,0.73-1.02c-0.16-0.17-1.06-0.77-0.65-1.42
							c0.3-0.48,1.17,0.45,1.4-0.22c0.29,0.08,0.55-0.68,0.7-1.17c-0.11,0.28-0.29,0.54-0.5,0.7c0.45-0.33-0.24-1.19-0.53-1.22
							c-0.55-0.07-1.23,0.25-1.76,0.61c-0.45,0.3-0.89,1.33-1.15,0.52c-0.02-0.87-0.59-0.67-0.85-0.06c0.04-0.44-0.17-0.99-0.4-1.08
							c0.31,0.15,1.3-0.26,0.68-0.56c-0.33-0.16-0.55-0.57-0.91-0.67c-0.33-0.1-1.18,2.26-1.51,1.42c-0.3-0.77,1.24-2.43-0.29-2.27
							c-0.49,0.05-0.47,0.78-0.63,1.25c-0.18,0.52-0.53,0.43-0.64,1.02c-0.38-0.11,0.13-1.21,0.22-1.48
							c0.29-0.36,0.44-0.83,0.48-1.28c0.02-0.35-0.4-0.07-0.49,0.13c-0.24,0.55-0.03,1.64-0.86,1.73c-0.32,0.04-0.5-0.26-0.55-0.61
							c0.32,0.09,1.17-0.84,0.85-1.07c-0.05-0.04-0.5,0.26-0.45-0.09c0.06-0.42-0.07-0.29-0.44-0.4c-0.39-0.12,0.03-0.49-0.34-0.64
							c-0.21-0.09-2.75-0.21-2.62,0.2c-0.06-0.17,0.17-0.43,0.12-0.62c-0.07-0.26-0.51-0.31-0.68-0.36
							c-0.45-0.13-0.71-0.66-1.17-0.72c-0.27-0.03-0.84,1.01-0.89,0.55c-0.03-0.29-0.32-1.18-0.55-0.58
							c0.08-0.7-1.32-0.64-1.55-1.02c-0.38-0.63-1.33,0.97-1.15,1.52C577.33,258.67,578.76,258.58,578.91,258.67z"/>
						<path class="st2" d="M596.14,263.95c-0.02,0.07-0.06,0.19-0.1,0.34C596.08,264.18,596.12,264.07,596.14,263.95z"/>
						<path class="st2" d="M600.56,267.78l0.26,0.08c-0.02-0.29-0.16-0.51-0.4-0.51C600.31,267.67,600.32,267.71,600.56,267.78z"/>
						<path class="st2" d="M603.01,268.12l0.26,0.08C603.79,266.68,602.35,267.92,603.01,268.12z"/>
						<path class="st2" d="M594.23,269.76c0.4,0.26,0.73,0.44,1.23,0.44c0.18,0,0.96-0.38,0.78,0.17c0.24-0.27,1.08-0.18,0.97,0
							c-0.09,0.16-0.49,0.23-0.55,0.15c0.36,0.49,1.28,0.67,1.8,0.87c0.62,0.24,1.5,0.81,2.03-0.02c0.1-0.15,0.15,0.48,0.05,0.66
							c0.93-0.68,1.3,0.87,1.89,0.93c0.4,0.04,1.3-1.91,1.78-2.68c-0.02,0.01,0.01-0.04,0.15-0.22c0.38-0.28,0.58-0.87,0.74-1.33
							c-0.28-0.08-0.56,0.56-0.86,0.65c-0.61,0.19-0.19-0.64-0.23-0.96c-0.03-0.29-1.06,0.51-1.21,0.57
							c-0.44,0.18-0.51-0.18-0.8-0.17c0.05,0-0.92,1.69-0.94,0.94c-0.01-0.28,0.45-1.71,0.8-1.6c0.85-1.08,0.91-1.67-0.21-1.71
							c-0.22-0.01-1.88-0.41-2.03-0.12c-0.21,0.61,0.72,0.59,1.01,0.78c0.57,0.37,0.44,0.72-0.09,1.11
							c-0.34,0.24,0.54,1.1,0.15,1.38c-0.16,0.12-0.48-0.62-0.52-0.67c-0.22-0.24-0.56-0.06-0.72-0.17
							c-0.21-0.15,0.33-0.74-0.06-0.94c-0.26-0.13-0.38,0.14-0.55-0.13c-0.16-0.24-0.24-1.89-0.42-1.87c-0.06,0-0.34,0.72-0.4,0.79
							c-0.31,0.34-0.54,0.22-0.86,0.58c-0.23,0.25-0.77,1.11-0.99,1.21c-0.31,0.14-0.22-0.73-0.26-0.71
							c-0.05,0.04-0.28,1.1-0.37,1.29c-0.15,0.31-0.41,0.48-0.51,0.77c0.21-0.61,0.52-1.29,0.41-1.9c0,0-0.12-0.23-0.17-0.48
							s-0.03-0.49,0.26-0.5c0.25-0.01,0.23,0.39,0.62,0.25c0.32-0.12,0.63-0.37,0.9-0.65c0.1-0.1,1.06-1.59,0.78-1.67
							c-0.19-0.06-0.91,1.26-1.03,1.44c-0.04-0.31-0.08-1.77-0.34-1.84c-0.28-0.08-0.64,1.34-0.7,1.53
							c0.21,0.06-0.55,0.77-0.65,0.94C594.81,267.4,593.6,269.35,594.23,269.76z"/>
						<path class="st2" d="M604.35,270.06c-0.04,0.05-0.09,0.13-0.15,0.22C604.26,270.27,604.63,269.86,604.35,270.06z"/>
						<path class="st2" d="M603.7,271.4c0.59,0.52,0.26,0.57-0.03,1.49c-0.19,0.61,0.45,0.59,0.77,0.66
							c0.81,0.19,2.31,0.79,2.69-0.74c0.57,0.17-0.3,0.72-0.1,1.13c0.57,0.17,1.02-1.19,1.12-1.69c0.14-0.74-0.35-1.4-0.7-0.36
							c0.12-0.35,0.3-3.24-0.15-2.91c-0.35,1.02-1.01,3.19-2.12,2.86c0.11-0.3,0.25-0.59,0.41-0.87c0.02,0.01,0.03,0.03,0.05,0.04
							c-0.01,0-0.03-0.02-0.04-0.05c0.33-0.58,0.72-1.16,0.91-1.84c0.29-1.04-1,1.02-0.98,1.69c-0.16-0.45-0.34-1.46-0.55-0.9
							c-0.17,0.45-0.37,0.89-0.75,1.14C604.22,271.06,603.56,271.28,603.7,271.4z"/>
						<path class="st2" d="M610.29,270.27c-0.03-0.72-0.46-0.33-0.64,0.2l0.26,0.08C610.04,270.49,610.17,270.35,610.29,270.27z"/>
					</g>
				</g>
			</g>
			<g>
				<g>
					<g>
						<path class="st2" d="M593.76,315.35c-0.55-0.17-0.5,0.21-0.06,0.4l0.02-0.14L593.76,315.35z"/>
						<path class="st2" d="M593.8,315.08c0.04,0.02,0.06,0.03,0.09,0.05C593.94,315.14,593.53,314.77,593.8,315.08z"/>
						<path class="st2" d="M593.88,315.13c-0.01,0-0.03-0.01-0.09-0.05c-0.53-0.6-1.24-0.05,0.22,0.2
							C594.04,315.24,593.98,315.19,593.88,315.13z"/>
						<path class="st2" d="M585.79,288.26C584.69,289.85,586.43,288.56,585.79,288.26L585.79,288.26z"/>
						<path class="st2" d="M578.46,285.26c-0.07-0.04-0.16-0.04-0.25,0c-0.15,0.19,0.14,0.51,0.17,0.52
							C578.48,285.81,578.57,285.27,578.46,285.26z"/>
						<path class="st2" d="M595.05,303.53c0.13-0.03,0.26-0.07,0.39-0.12C595.27,303.46,595.12,303.5,595.05,303.53z"/>
						<path class="st2" d="M597.88,317.44c0.47-0.06,0.29-0.28,0.02-0.56c-0.22-0.22,0.12-0.04,0.24-0.06
							c-0.06,0-1.7-0.76-1.19-0.75c0.57,0.01,1.23,0.25,1.85,0.42c0.47,0.14,1.25,0.04,0.81-0.32c-0.57-0.14-0.83,0.05-1.47-0.2
							c0.07-0.4,1.12,0.05,1.17-0.22c0.02-0.21-0.34-0.28-0.71-0.34c0.02-0.37,1.01,0,1.11-0.28c0.1-0.27,0-0.22,0.3-0.34
							c0.5-0.2-0.12-0.49-0.63-0.59c-0.57-0.11-0.69-0.19-0.67-0.45c0.48,0.08,0.94,0.18,1.4,0.27c0.64,0.13-0.13-0.39-0.28-0.44
							c-0.13-0.2,0.05-0.47,0.03-0.67c-0.01-0.08-0.5-0.52-0.53-0.46c0.1-0.17,2.51-0.22,0.85-0.73c-0.51-0.04-0.15-0.22-0.02-0.35
							c0.44-0.18,0.23-0.45-0.03-0.69c-0.47-0.61,0.05-0.38,0.54-0.83c0.55-0.51-0.94-0.53-1.6-0.51c0.28-0.01,0.39-0.17,0.87-0.19
							c0.24-0.01,0.4-0.09,0.48-0.19c0.36-0.41,0.12-0.96,0.2-1.4c0.06-0.38,0.3-1,0.07-1.35c-0.16-0.22-1.14,0.11-1.48,0.15
							c0.3-0.04,0.18-0.23,0.46-0.36c0.18-0.07,0.38-0.12,0.6-0.15c0.21-0.06,0.02-0.34,0-0.41c0.06,0.21-0.33-0.15-0.34-0.19
							c-0.08-0.28,0.19-0.63,0-0.88c-0.17-0.25-1.31-0.03-1.04-0.46c0.26-0.41,1.26-1.19,0.8-1.54c-0.2-0.15-1.58-0.1-0.33-0.5
							c-0.16-0.05-0.37-0.05-0.59,0.01c1.76-0.68,0.63-1.59,0.3-2.23c-0.05-0.18-0.52-1.33-1.06-1.07c-0.14-0.14,0.02-0.3,0-0.49
							c-0.04-0.32-0.23-0.57-0.4-0.83c-0.25-0.42-0.17-0.9-0.47-1.29c-0.08-0.1-0.21-0.47-0.63-0.22c-0.26,0.26-0.51,0.24-0.6,0.12
							c-0.11-0.14-0.07-0.4,0.19-0.66c0-0.25-0.37-0.3-0.32-0.59c0.02-0.09,0.54-0.78-0.01-0.4c-0.31,0.21-0.73,0.3-0.84,0.18
							c0.15-0.13,0.84-0.5,0.85-0.53c0.16-0.3-1.01-0.34-1.17-0.42c-0.21-0.11-0.12-0.47-0.17-0.74c-0.04-0.25,0.13-1.04-0.54-0.62
							c-0.41,0.25-0.67,0.43-1.09,0.65c0.17-0.35,0.57-0.9,0.66-1.21c0.16-0.55-1.01,0.68-1.15,0.78c-0.31-0.27,1.07-1.26,1.24-1.67
							c0.21-0.51-0.6-0.23-0.75-0.36c-0.15-0.15-0.3-0.85-0.62-0.52l-0.26,0.26c-0.12-0.06-0.28-0.02-0.5,0.1
							c-0.09,0.05-0.7,0.61-0.7,0.61c-0.14-0.1,1.24-1.57,1.23-1.95c-0.02-0.46-0.69-0.63-0.97-0.84c-0.31-0.27-0.79-1.35-1.62-0.51
							c0.42-0.7-0.64-0.89-0.82-1.1c-0.05-0.06-0.08-0.79-0.26-0.54c-0.42,0.21-0.38,0.92-0.57,1.12c-0.7,0.74,0.01-1.68-0.28-1.63
							c0,0.01-0.36,0.5-0.7,0.97c-0.34,0.47-0.67,0.9-0.65,0.76c0.05-0.32,1.72-2.49,0.76-2.17c-0.52,0.19-0.7-0.45-1.32,0
							c-0.3,0.08-1.05,0.33-1.1-0.05c0.36-0.64,0.09-1.55-0.33-0.75c0.94-1.77-0.7-1.53-1.34,0.12c0.11-0.45,0.3-0.97,0.37-1.39
							c0.11-0.59-0.25-0.52-0.5-0.59c-0.25-0.07-0.81-0.71-1.01,0.07c-0.03-0.46-0.33-0.64-0.6-0.72c-0.51-0.15-0.55,0.19-0.93,1.09
							c-0.28-0.07,0.15-1.2,0.03-1.52c-0.13,0.35-0.41,0.67-0.58,0.64c0.54-1.33-0.18-1.16-0.64-1.25c-0.3-0.06-1.09,1.38-1.3,1.82
							c-0.23,0.46-0.35,1.09-0.57,1.5c-0.19,0.37-0.15-0.16-0.1-0.34c0.17-0.65,0.47-1.31,0.72-1.91c-0.03,0.08,0.51-1.08,0.38-1
							c-0.09,0.05-0.27,0.15-0.39,0.08c0.06-0.15,0.08-0.27,0.05-0.35c-0.07-0.06-0.33-0.16-0.43,0.09
							c-0.06,0.17-0.56,2.53-0.6,2.45c-0.14-0.37-0.05-2.27-0.7-0.93c0.12,0.55-0.31,1.31-0.27,1.9c0.03,0.48,0.97-0.88,0.86-0.24
							c-0.07,0.43-0.35,0.8-0.28,1.34c-0.14,0.5,0.38,0.06,0.49,0.08c0.33,0.06,0.73-1.15,1.01-1.76c0.17-0.36,0.37-0.87,0.6-0.93
							c0.09-0.02,0.51-0.01,0.41,0.29c-0.09,0.26-0.64,0.56-0.78,0.75c-0.29,0.39-0.4,0.73-0.57,1.25c0.27-0.85,0.55-0.4,0.91-0.82
							c0.3,0.05,0.08,0.3,0.16,0.62c0.07,0.27,0.36,0.19,0.52,0.27c0.17,0.07-0.05,0.41-0.09,0.72c-0.05,0.45,0.21,0.51,0.34,0.68
							c0.07,0.09,0.52,0.87,0.69,0.31c0.28-0.9,0.53-1.14,0.83-0.8c0.2,0.23-0.33,1.24,0.2,0.69c0.57-0.59,0.13,0.8,0.49,0.33
							c0.21-0.28,1.19-2.16,1.15-2.19c0.15,0.16-0.43,1.22-0.52,1.55c-0.13,0.5,0.17,0.57-0.12,1.12c-0.12-0.04-0.21,0.31-0.17,0.33
							c0.15,0.05,0.22-0.25,0.31-0.28c0.22-0.43,0.5-0.25,0.6-0.17c0.02-0.03,0.25-1.18,0.47-0.86c0.26,0.39-0.68,1.5-0.66,1.84
							c0.01,0.54,0.66-0.1,1.01-0.62c0.34-0.53,0.27-0.37,0.51-0.25c-0.01-0.06,0.16,0.49,0.3,0.2c0.24-0.49,0.33-0.87,0.44-0.26
							c-0.12,0.8-0.64,0.45-1.05,1.14c0.4,0.02-0.13,0.76,0.49,0.4c0.36-0.2,0.59,0.5,1.07-0.38c-0.29,0.4-0.2,0.66,0.12,0.42
							c0.34-0.24,0.6-0.62,0.92-0.94c0.63-0.6-0.02,0.59-0.16,0.84c-0.2,0.35-0.92,1.42-0.54,1.35c0.22-0.04,0.96-0.27,0.26,0.52
							c0.48-0.54,1.77-2.21,1.66-1.25c-0.07,0.5-1.29,1.72-0.54,1.47c0.12-0.04,0.93-0.57,0.88-0.35c-0.07,0.27-0.48,0.68-0.56,0.94
							c-0.08,0.24,0.36-0.06,0.5,0.03c0.19,0.14,0.56-0.53,0.83-0.64c0.4-0.16,0.4,0.25,0.94-0.03c0.11-0.06,1-0.53,0.48,0.02
							c-0.17,0.47-0.13,0.86,0.11,1.03c0.21,0.14,0.57-0.06,0.84-0.01c0.32,0.06-1.43,1.15-1.56,1.57
							c-0.12,0.37,0.84-0.44,0.97-0.52c0.19-0.13,0.62-0.19,0.33,0.07c0.14-0.12,0.99-1.04,1.02-0.97c0.12,0.29-1.49,1.59-1.9,1.96
							c0.21,0.18,0.89-0.69,1.17-0.45c-1.04,0.74,0.08,0.49-0.06,0.79c-0.13,0.26-0.61,0.45-0.49,0.65
							c0.08,0.14,0.22,0.04,0.39,0.09c0.3,0.08,0.13,0.43,0.26,0.56l0.58,0.59c0.17-0.28,0.78-0.74,1.14-0.76
							c0.44-0.03-0.37,0.68-0.52,0.87c-0.48,0.34-0.51,0.78-0.18,0.78c0.38,0,0.59-0.62,0.73-0.81c0.21-0.28,1.13,0.18,0.46,0.62
							c-1.3,0.82,1.34-0.09,1.43,0.02c-0.27,0.16-1.09,0.57-1,0.76c0.03,0.06,0.9,0.49,0.2,0.6c0.01,0.16,0.85,0.22,0.38,0.48
							c-0.21,0.12-0.76,0.73-0.43,0.6c0.54-0.21,1.27-1.13,1.27-1.34c0-0.07,0.62-0.11,0.67-0.06c0.14,0.14-0.46,0.56-0.68,0.72
							l-1.16,0.93c0.27-0.03,0.56-0.06,0.83-0.08c0.97-0.26,0.35,0.04-0.03,0.43c-0.93,0.91,1.37,0.76,0.1,1.51
							c-0.15,0.08,1.28-0.17,0.81,0.12c-0.09,0.06-1.48,0.67-0.85,0.62c0.34-0.02,1.1-0.45,1.22-0.22c0.05,0.09-0.41,0.54-0.5,0.54
							c0.01,0,0.44-0.48-0.09-0.25c-0.39,0.17-0.43,0.54-0.37,0.66c0.03,0.06,0.08,0.41,0.44,0.25c0.41-0.18,1.08-0.51,0.97-0.73
							c0.2-0.12,0.69-0.25,0.88-0.23c0.34,0.04-0.16,0.4-0.31,0.53c-0.39,0.36-1.02,0.76-1.73,1.01c0.32-0.08,0.7-0.16,0.74-0.06
							c0.04,0.09-0.63,0.36-0.79,0.47c-0.39,0.29,0.18,0.5,0.43,0.63c0.35,0.19,0.58,0.31,1.17,0.4c0.18-0.02,0.99-0.04,0.69,0.16
							c-0.2,0.14-1.8,0.34-1.84,0.31c0.15,0.12,1.14,0.05,1.17,0.13c-0.02-0.08-0.7,0.24-0.77,0.32c-0.11,0.13-0.11,0.46,0.39,0.37
							c0.19,0.11,0.53,0.68,0.95,0.62c0.45,0.52-0.42,0.4-0.96,0.8c-0.43,0.3,0.88,0.31,0.78-0.1c0.09,0.28,0.88,0.75,1.78,0.69
							c-0.58,0.04-1.02-0.07-1.64,0.02c-0.36,0.05-0.59,0.16-0.91,0.2c1-0.03,1.09,0.26,1.04,0.72c-0.05,0.43-0.84,0.47-1.33,0.74
							c0.63,0,0.44,0.85,0.51,1c0.1,0.22,0.94,0.27,0.86,0.51c-0.06,0.2-2.45,1-0.8,1.19c-0.06,0.18-1.25,0.36-0.71,0.54
							c0.63,0.22,0.9,0.34,1.4,0.64c-0.64-0.2-1.22-0.39-1.82-0.61c0.6,0.34,1.2,0.7,1.79,1.08c-0.16-0.07-1.61-0.59-1.59-0.54
							c0.19,0.42,1.61,0.71,2.31,0.84c-0.02,0.28-1.58-0.17-1.95-0.23c-0.73-0.14,0.01,0.21-0.37,0.32
							c-0.18,0.05-0.67-0.15-0.5,0.08c0.12,0.18,0.6,0.39,0.41,0.55c-0.12,0.1-0.24,0.26-0.41,0.35c-0.16,0.08-1.35,0.21-1.08,0.43
							c-0.04-0.03,1.06,0.44,1.09,0.46c0.86,0.39,1.05,0.5,0.71,0.73c-0.15,0.1,0.37,0.35,0.53,0.53
							C596.64,317.43,597.52,317.49,597.88,317.44z"/>
						<path class="st2" d="M596.63,308.38c-0.11,0.01-0.23,0.01-0.37,0.02C596.4,308.41,596.52,308.4,596.63,308.38z"/>
						<path class="st2" d="M573.4,283.05c-0.15-0.15-0.42-0.29-0.38,0.37c0.04,0.57,0.42,0.49,0.64,0.49l-0.17-0.76
							C573.43,283.06,573.41,283.04,573.4,283.05z"/>
						<path class="st2" d="M575.57,279.83c-0.21-0.69-0.46,0.35-0.62-0.26c-0.37-0.55-1,0.51-1.46,0.65
							c0.12-0.75-0.08-0.86-0.41-0.65c-0.3,0.2-0.42,0.76-0.64,1.16c0.45-0.76-0.44-2.66-0.23-0.89c0.21,0.64-0.36,0.45-0.45-0.02
							c-0.11-0.62,0-1.1-0.46-1.1c-0.5-0.56-0.21,1.64-0.2,1.85c0.02,0.39-0.55,2.56-0.24,2.83c0.19,0.17,0.31-0.69,0.52-0.21
							c0.1,0.23,0.16,1.11,0.36,0.71c0.05-0.43-0.01-1.14,0.07-1.48c0.07-0.26,0.14-0.39,0.18-0.59c-0.03,0.59,0,1.52,0.27,0.9
							c0.13-0.3,0.43-1.46,0.47-1.78l-0.3,2.21c0.26,0,0.17-0.92,0.42-1.06c0.31-0.17,0.39,0.19,0.64,0.27
							c0.32,0.12,0.68-0.03,0.84,0.58c0.04,0.16,0.1,0.84,0.19,0.84c-0.08-0.01,0.12-1.1,0.17-1.28c0.32,0.03,0.14,0.83,0.02,1.34
							c0.1-0.45,0.41-0.76,0.61-0.86c0.29-0.15,0.33-0.25,0.43-0.98C575.87,281.2,575.74,280.39,575.57,279.83z"/>
						<path class="st2" d="M571.31,278.73C571.65,278.73,570.99,278.36,571.31,278.73L571.31,278.73z"/>
						<path class="st2" d="M570.6,279.15c-0.34-0.81-0.39,1.11-0.41,1.51c0.02-0.19-0.11-2.37-0.36-1.95
							c-0.19,0.36,0.05,1.14-0.28,1.25c-0.2,0.06-0.47,0.15-0.66,0.03c-0.08-0.05,0.03-0.42,0.02-0.6
							c-0.06-0.69-0.49-0.56-0.49,0.11c-0.18-0.55-0.42,0.88-0.67,0.35c-0.16-0.32,0.03-0.97,0.16-1.19
							c-0.45,0.07-0.53,1.25-0.6,1.97c-0.12-0.63-0.23-1.13-0.25-1.83c-0.1,0.53-0.4,2.32-0.68,2.37c-0.03-0.6-0.21-2.05-0.64-1.62
							c-0.24,0.25,0.66,1.16,0.29,1.63c-0.44,0.59-0.28-1.5-0.59-1.36c-0.14,0.06-0.14,1.02-0.39,0.46
							c0.01,0.02-0.14-0.53-0.13-0.55c-0.07,0.24-0.08,0.57-0.04,0.87c-0.11-0.91-0.28-1.16-0.66-1.58
							c-0.18-0.2-0.18,0.18-0.14,0.53c-0.11-0.46-0.38-0.76-0.61-0.75c-0.25,0.01-0.25,0.51-0.4,0.78c-0.13,0.25-0.3,0.55-0.49,0.58
							c-0.15,0.04-0.24-0.81-0.28-1.02c-0.17,0.18-0.26,0.54-0.33,0.9c0.01,0.16,0.02,0.26,0.03,0.31c0.14,1.22,0.54,1.72,0.8,2.94
							c0.27,1.23,0.48,0.47,0.85,0.49c0.27,0.01,0.88,0.51,1-0.15c0.15-0.77-0.11-1.13-0.38-1.59c0.11-0.03,0.33-1.9,0.31-2.07
							c0.07,0.41,0,0.87,0.07,1.32c0.03,0.23,0.23,0.58,0.23,0.58c0.04,0.34-0.14,1.57,0.12,1.49c0.29-0.11,1.44,0.9,1.33-0.64
							c0.01,0.17,0.54,0.09,0.65,0.05c0.21-0.09,0.31,0.62,0.54,0.73c0.26,0.13,0.57,0.1,0.8-0.25c0.49-0.74,0.3,0.52,0.68,0.48
							c-0.02-0.81-0.29-0.83-0.07-1.73c0.07-0.29,0.46-1.42,0.65-0.86c0.27,0.82-0.24,1.8-0.29,2.55c0.18-0.02,0.89,0.22,1.02-0.37
							c0.11-0.52,0.01-1.99,0.27-2.3C570.98,280.53,570.87,279.81,570.6,279.15z"/>
						<path class="st2" d="M562.17,283.11c-0.18,0.35,0.09,0.75,0.3,0.67C562.75,283.67,562.39,283.02,562.17,283.11z"/>
						<path class="st2" d="M560.57,280.56l-0.16,0.06C560.22,281.15,560.89,281.76,560.57,280.56z"/>
						<path class="st2" d="M560.76,282.47c-0.34-0.85-0.84-1.83-1.11-2.75c-0.21,0.15-0.47,0.94-0.38,1.49
							c0.12,0.75,0.51-0.21,0.54-0.01c0.05,0.45-0.28,0.88-0.56,0.48c-0.27-0.39-0.34-1.17-0.71-1.37c-1.3-0.67,0.38,1.4,0.2,1.63
							c-0.18,0.25-0.99-1.47-1.32-1.51c-0.54-0.08-0.67-0.13-0.26,0.88c-0.32,0.18-0.58-0.48-0.99-0.58
							c-0.28-0.06-0.73,0.14-0.36,0.85c-0.55-1.25-1.19,0.64-1.77,0.46c0,0.01-0.03,0-0.1-0.05c0.21,0.39,0.94,1.46,1.47,2.1
							c0.3,0.59,0.49,0.36,0.64,0.6c0.09,0.13,0.7,1.24,0.61,0.67c-0.05-0.33-0.32-0.54-0.16-0.64c0.1-0.06,0.2-0.12,0.29-0.2
							c0.16-0.18-0.26-1.01-0.25-1.42c0.02-1.1,0.72,1.75,0.7,1.71c0.09,0.16-0.03-1.11,0.31-0.71c0.36,0.44,0.67,1.24,0.95,0.92
							c0.06-0.07,0.36-0.85,0.04-1.14c-0.08-0.07-0.29,0.47-0.33,0.28c-0.14-0.6,0.51-0.87,0.77-0.73c0.14,0.07,0.14,0.31,0.12,0.44
							c-0.05,0.39,0,0.36,0.2,0.93c0.03-0.46-0.05-1.06-0.09-1.6c0.08,0.24,0.58,1.8,0.65,1.44c0.06-0.31-0.15-0.95-0.02-1.19
							c0.05-0.09,0.25,0.31,0.33,0.37c0.44,0.33-0.35-1.92,0.47-0.1c0.45,0.74,0.7,0.96,0.79,0.09c0.11-0.91,0.64,1.04,0.64,0.22
							c0-0.9-0.14-2.31-0.33-3.29C561.31,278.56,560.79,281.85,560.76,282.47z"/>
						<path class="st2" d="M553.93,281.98c0.04,0.03,0.07,0.04,0.1,0.05C554.05,282,553.8,281.73,553.93,281.98z"/>
						<path class="st2" d="M548.96,289.95c-0.15,0.22,0.43,0.99,0.74,0.87C549.83,290.64,549.15,289.68,548.96,289.95z"/>
						<path class="st2" d="M547.89,292.41c0.48-0.16,0-0.75-0.24-0.3C547.67,292.22,547.75,292.32,547.89,292.41z"/>
						<path class="st2" d="M555.32,284.59c-0.11-0.19-0.23-0.65-0.35-0.75c-0.45-0.34,0.05,0.81-0.56-0.38
							c-0.21-0.41-1.07-1.11-0.96-0.53c0.07,0.39,0.32,0.94,0.46,1.36c-0.23-0.41-0.71-1.35-1-1.27c-0.21,0.06-0.35,0.92-0.84,0.15
							c0.3,0.47,0.63,1.01,0.43,1.28c-0.14-0.21-0.85-1.45-1.04-1.28c-0.05,0.04,0.27,1.13,0.28,1.33c0.04,1.14-0.69-0.74-0.95-0.68
							c-0.11,0.02-0.14,0.73-0.17,0.87c-0.05,0.22,0.37,0.73,0.56,0.98c-0.23,0.21-0.76-0.88-0.9-1.03
							c-0.12-0.12-0.44,0.15-0.7-0.03c-0.44-0.3-0.34-0.27-0.32,0.23c0.01,0.32-0.18,0.43-0.47,0.36c-0.12-0.03-0.93-0.57-0.68-0.14
							c0.12,0.2,0.74,0.78,0.7,0.93c-0.06,0.18-0.46-0.12-0.67-0.34c-0.82-0.89-0.1,0.61,0.1,0.69c-0.15,0.01-0.73-0.54-0.94-0.31
							c-0.24,0.27,0.33,0.36,0.48,0.64c0.16,0.29-1.08-0.22-1.15-0.23c-0.24-0.02,0.15,0.55,0.14,0.79
							c-0.03,0.54-0.06,0.86,0.28,1.57c0.13,0.27,0.41,0.79,0.02,0.67c-0.4-0.12-1.32-0.71-1.42-0.52c-0.17,0.3-0.56-0.09-0.94-0.16
							c-0.97-0.14,0.7,1.62-0.83,1.01c0.68,0.42,1.13,0.92,0.67,1.08c-0.39,0.13-1.46-0.38-1.56-0.18
							c-0.11,0.26,1.99,0.73,2.15,0.84c0.96,0.52,1.1,1.07,1.78,1.65c0.28,0.24,0.46,0.15,0.58-0.01c0.13-0.15,0.2-0.37,0.22-0.41
							c0.16-0.4-1.19-0.55-1.45-0.91c0.14,0.21,0.41,0.43,0.68,0.63c-0.39-0.26-0.82-0.55-1.02-0.84c-0.32-0.46,0.35-0.18,0.69,0.05
							c0.56,0.3,1.41,0.58,0.53-0.17c-0.31-0.26-1.3-0.99-0.9-1.15c0.32-0.12,1.35,1.01,1.67,1.22c0.47,0.32,0.53-0.19,0.6-0.31
							c0.27-0.47,0.97-0.37-0.34-1.49c0.6,0.19-0.04-0.42,0.13-0.67c0.04-0.05,0.66,0.5,0.76,0.36c0.09-0.12-1.43-1.58-0.48-1.35
							c0.18,0.04,1.01,0.41,1.16,0.76c0.16,0.37-0.46-0.06-0.61-0.06c-0.23,0-0.08,0.31,0.2,0.57c0.41,0.39,0.25,0.35,0.1,0.5
							c0.54,0.5,1.12,0.28,0.6-0.23c0.15-0.23,0.65,0.11,0.77-0.19c0.1-0.25,0.05-0.78-0.56-1.24c-0.28-0.22-0.7-0.39-0.85-0.62
							c-0.14-0.2-0.46-1.45-0.23-1.17c0.38,0.47,0.77,0.82,1.24,1.19c0.49,0.39,0.74,0.6,0.96,0.45c0.21-0.14,0.7,0.34,0.89,0.28
							c-0.29,0.11-3.21-4.44-0.41-0.82c0.48,0.63,0.85,0.7,0.75,0.16c-0.02-0.13-0.24-0.56-0.44-0.97c-0.1-0.2-0.2-0.4-0.27-0.55
							c-0.07-0.15-0.12-0.24-0.11-0.25c0.07-0.07,1.29,1.95,1.49,1.76c-0.34-0.48-1.58-1.94-1.34-2.27
							c0.26-0.35,1.09,1.37,1.43,1.55c0.17,0.09,0.24-0.14,0.34-0.18c0.16-0.08,0.3,0.3,0.45,0.32c0.11,0.01,0.12-0.37,0.11-0.77
							c-0.02-0.4-0.04-0.8-0.04-0.8c0.15,0.19,0.22,0.77,0.52,0.89c0.15,0.06,0.17-0.15,0.16-0.32c-0.01-0.21-0.39-1.58-0.23-1.57
							c0.29,0.02,0.81,1.14,1.11,1.38c0.4,0.33,0.23-0.41,0.02-0.82C555.52,284.66,555.58,285.04,555.32,284.59z"/>
						<path class="st2" d="M545.15,292c-0.5-0.32-1.38-0.56-1.2-0.14c-0.01,0,0,0.03,0.06,0.12l1.51,0.9
							c-0.27-0.16-0.47-0.35-0.63-0.56C545.13,292.62,546.44,292.81,545.15,292z"/>
						<path class="st2" d="M545.79,294.43c0.15,0.18,0.86,0.73,0.98,0.52C546.84,294.78,545.89,294.2,545.79,294.43z"/>
						<path class="st2" d="M542.05,291.25c-0.04-0.01,0.39,0.56,0.38,0.63c-0.04,0.26-0.47,0.2-0.53,0.48
							c-0.04,0.24,0.03,0.53,0.23,0.84c0.09,0.14,0.61,0.42,0.61,0.42c-0.01,0.04-1.02-0.24-0.89-0.1c0.28,0.3,1.2,0.73,1.59,0.96
							l2.35,1.1c0.06-0.21-1.53-1.11-1.33-1.18c0.2-0.06,1.71,1.13,1.82,0.79c-1.39-0.59-0.38-0.51-0.91-0.95
							c-0.51-0.42-1.8-0.67-1.4-1.15c0.3-0.35,0.83,0.45,1.12,0.73c0.38,0.37,1.49,0.48,1.89,0.62c0.07-0.18-1.72-1.4-2.01-1.61
							c-0.58-0.42-2.01-1.21-1.81-1.67C542.99,291.57,542.84,291.54,542.05,291.25z"/>
						<path class="st2" d="M540.93,293.95c-0.18,0.23-0.24,0.67,0.08,1.03c0.3,0.33,1.06,0.58,1.3,0.81
							c0.19,0.17-1.92-0.22-2.05-0.12c-0.2,0.11-0.1,0.42-0.06,0.61c0.06,0.34-0.01,0.65-0.14,0.94c-0.17,0.39-0.8,0.53,0.06,1.17
							c0.09,0.08,2.83,0.89,2.14,1.03c-0.08,0.02-0.82-0.32-1.04-0.36c-0.34-0.06-0.64-0.02-0.87,0.06
							c-0.74,0.25-0.94,0.85-0.97,1.36c-0.01,0.2-0.21,0.67,0.17,0.88c0.54,0.3,0.39-0.27,0.39-0.3c-0.07-0.09,1.04,0.3,1.15,0.32
							c0.58,0.11,1.4,0.28,1.97,0.33c0.57,0.05,0.11-0.31,0.45-0.29c0.58,0.03,0.78,0.04,0.66-0.25c-0.16-0.41-0.31-0.66-1.35-0.88
							c-0.34-0.07-1.1-0.18-0.84,0.11c0.37,0.23-0.73-0.07-0.79-0.1c-0.16-0.05-1.18-0.56-0.87-0.65c0.1-0.03,0.75,0.28,0.89,0.32
							c0.48,0.12,1.01,0.13,1.39,0.08c0,0,0.3-0.16,0.62-0.25c0.32-0.09,0.66-0.11,0.77,0.11c0.04,0.08-0.36,0.17-0.12,0.32
							c0.23,0.13,0.99-0.74-0.38-0.78c-0.53-0.13-0.26-0.2-0.42-0.41c-0.25-0.31-0.2-0.12-0.61-0.26c0.15,0.04,1.38-0.12,1.51-0.13
							c0.57-0.09,0.46-0.46,0.51-0.77c0.81-0.36-1.34-0.55-1.98-0.82c-0.17-0.08-0.09-0.23-0.05-0.28c0.07-0.09,0.6,0.14,0.7,0.17
							c0.57,0.19,1.36,0.34,1.02-0.1c-0.3-0.4-1.08-0.81-1.44-1.26c0.1-0.34-0.61-0.57-0.65-0.94c-0.02-0.13,1.4,0.93,1.55,1
							c0.4,0.22,1.24,0.61,1.56,0.54c0.48-0.12-0.28-0.65-0.85-0.8c-0.31-0.08-0.69-0.07-1.01-0.18c-0.35-0.12-0.17-0.26-0.03-0.26
							C543.46,294.41,541.26,293.52,540.93,293.95z"/>
						<path class="st2" d="M539.78,303.12C539.03,302.92,540.91,303.52,539.78,303.12L539.78,303.12z"/>
						<path class="st2" d="M540.3,302.61c-0.1,0.21-0.74-0.13-1-0.03c-0.36,0.14,0.17,0.47,0.48,0.55c0.4,0.15,3.11,0.67,2.6,0.13
							c0.51,0.03,0.87,0.12,0.76,0.34c0.76,0.04-0.08-0.82-0.2-0.96c-0.49-0.48-1.32-0.93-2.57-1.06
							C538.18,301.36,540.54,302.13,540.3,302.61z"/>
						<path class="st2" d="M539.24,308.69c-0.33,0.06-0.36,0.08-0.32,0.23l0.05,0.17C539.22,308.97,539.35,308.82,539.24,308.69z"/>
						<path class="st2" d="M542.45,313.16c0.03,0,0.07-0.01,0.15-0.02c0.26-0.02,0.37-0.03,0.39-0.03c0.44-0.03,0.8-0.09,0.66-0.36
							c-0.09-0.17-1.42,0.26-1.59,0.44C542.02,313.22,542.27,313.19,542.45,313.16z"/>
						<path class="st2" d="M542.45,313.16c-0.2,0.04,0.59-0.05,0.53-0.05c-0.13,0.01-0.26,0.02-0.39,0.03
							C542.62,313.13,542.55,313.15,542.45,313.16z"/>
						<path class="st2" d="M544.71,312.42c0.09,0.17-0.2,0.42-0.1,0.61C545.51,313.01,544.77,312.53,544.71,312.42z"/>
						<path class="st2" d="M542.78,303.73c0.03,0.32-1.39,0.3-1.2,0.54c0.16,0.19,0.59,0.33,0.8,0.5c0,0,0.34,0.42,0.06,0.33
							c0.34,0.12,0.64,0.12,1.06,0.11c-0.76,0.02-1.27,0.09-1.97,0.23c0.51,0.19,1.93,0.44,1.57,0.78
							c-0.26,0.25-1.41,0.44-1.78,0.19c-0.09,0.01-0.4-0.14-0.37,0.03c-0.17,0.1,0.12,0.23,0.24,0.29c0.26,0.11,0.83,0.29,1.26,0.23
							c0.61-0.09,1.33,0,1.22,0.32c-0.07,0.21-1.35,0.29-1.67,0.51c-0.16,0.11,0.3,0.35,0.61,0.42c0.33-0.15,0.65-0.31,1.01-0.32
							c0.88-0.02,0.77,0.29-0.02,0.4c0.29-0.03,0.72-0.01,0.61,0.13c-0.13,0.16-0.82,0.31-1.13,0.38c-1.09,0.26-2.22,0.46-3.32,0.69
							c0.78-0.15,1.78,0.19,2.41-0.05c0.31-0.12,0.63-0.39,1.06-0.42c0.44-0.03-0.17,0.37-0.24,0.41c-0.49,0.26-2.02,0.63-1.6,0.96
							c0.22,0.17,1.62-0.78,1.73-0.83c1.16-0.7,0.8,0.07,0.89,0.29c0.08,0.19,0.73,0.32,0.42,0.59c-0.14,0.13-0.92,0.33-1.17,0.42
							c-0.34,0.13-1.85,0.69-1.81,0.93c0.03,0.15,1.97-0.67,1.97-0.57c0,0.04-0.44,0.24-0.15,0.27c0.17,0.01,0.79-0.31,1.1-0.36
							c1.2-0.21,0.04,0.42-0.51,0.61c0.55-0.17,1.56-0.35,0.69,0.1c-0.79,0.4-2.41,1.2-3.3,1.43c-0.03,0.01,0.65,0.16,0.67,0.16
							c0.5,0.05,1-0.02,1.58-0.09c1.16-0.76-0.25,0.71-0.25,0.71s0.35-0.22,0.65-0.38c0.3-0.16,0.55-0.24,0.37,0.07
							c-0.12,0.21,0.69,0.12,0.78,0.25c0.1,0.15-0.62,0.56-0.53,0.69c-0.11-0.17,2.28-1.14,1.66-0.42
							c-0.35,0.42-1.81,1.11-2.46,1.56c0.39-0.08,0.78-0.16,1.17-0.24c0.24-0.02,0.86-0.11,1.16-0.32c0.04-0.03-0.21-0.2-0.13-0.32
							c0.34-0.47,0.64,0.49,0.64,0.49c0.08,0.11,0.55,0.43-0.11,0.7c-2.15,0.87,1.17,0.35,0.83,0.89c-0.17,0.31-1.39,0.99-1.76,1.22
							c-0.71,0.45-1.76,1.23-2.4,1.14c-0.56-0.08-0.23-0.26,0.42-0.66c0.45-0.28,0.58-1.02,0.78-1.05
							c-0.57,0.08-1.32,0.48-1.94,0.75c0.31-0.18,2.84-1.71,1.98-1.44c-0.73,0.22-1.58,0.75-2.15,0.69
							c-0.42-0.05-1.24-0.55-0.24-0.98c-0.8,0.45-0.54-0.2-0.19-0.48c0.11-0.11,1.03-0.96,0.32-0.7c-0.58,0.21-1.33,0.46-1.12-0.07
							c0.24-0.58-0.22-0.18-0.42-0.57c0.72-0.79-0.62-1.59-0.81-2.18c-0.07-0.18-0.14-0.51,0.18-0.73c0.16-0.11,0.96-0.22,0.98-0.18
							c-0.05-0.14-0.95-0.13-1.17-0.23c-0.38-0.18-0.06-0.57,0.16-0.84c1.1-0.56-0.05-0.22-0.4-0.31c-0.19-0.05-0.26-0.26-0.24-0.38
							c0.03-0.17,0.53-0.08,0.6-0.11c0.07-0.03-0.93-0.3-0.87-0.46c0.13-0.42,1.09-0.89,1.53-1.23c0.71-0.55-1.03-0.06-1.46-0.01
							c-0.85,0.1,0.32-0.62-0.28-0.67c1.24-0.12-0.3-1,0.15-1.08c0.62-0.08,1.2,0.04,1.65-0.33l0.63-0.5
							c-0.58,0.12-1.21,0.21-1.77,0.35c-0.12,0.03-0.69,0.25-0.75,0.18c-0.14-0.16,0.02-0.22,0.32-0.24
							c0.02-0.1-0.24-0.48,0.03-0.52c0.51-0.08,0.62-0.09,0.58-0.37c-0.16-0.12-0.57-0.33-0.05-0.34c-0.27-0.55,0.02-0.15-0.88-0.31
							c0.25,0.04,0.26-1.13,1.52-0.53c0.62,0.01,1.01-0.18,1.49,0.03l0.74,0.02C542.41,303.73,542.44,303.71,542.78,303.73z
							 M541.03,308.22c-0.21,0.28,0.53,0.26,0.92,0.19c0.2-0.04,0.39-0.11,0.57-0.18C542.02,308.2,541.46,307.94,541.03,308.22z"/>
						<path class="st2" d="M546.25,320.81c-0.33,0.2-0.67,0.51-0.68,0.73C545.73,321.72,546.81,320.45,546.25,320.81z"/>
						<path class="st2" d="M544.43,320.65c0.32-0.03,0.67-0.29,1.04-0.28c0.69,0.02-0.13,0.28-0.48,0.57
							c-0.22,0.18-0.96,1.15-0.31,0.83c0.48-0.25,1.09-0.8,1.54-1.14c0.65-1.18,0.84-0.17,0.81-0.15c0.19-0.21,0.53-0.49,0.88-0.76
							c0.11-0.05,0.19-0.08,0.26-0.11c0.35-0.15,0.87-0.4,0.96-0.62c0.19-0.41-0.37-0.11-0.73,0.16c-0.1,0.08-1.28,0.88-0.98,0.42
							c0.24-0.35,0.9-0.65,1.14-1.01c0.23-0.34-0.13-0.33-0.35-0.35c-0.42-0.04-0.5-0.37-0.76-0.53c-0.36-0.27-1.78,0.71-2.34,1.17
							C544.35,319.45,543.4,320.72,544.43,320.65z"/>
						<path class="st2" d="M548.16,319.61c-0.11,0.05-0.2,0.09-0.26,0.11C547.64,319.92,548.72,319.38,548.16,319.61z"/>
						<path class="st2" d="M550.98,323.22c0.39-0.19,1.34-1.29,0.89-1.09C551.56,322.28,550.79,323.08,550.98,323.22z"/>
						<path class="st2" d="M551.23,324.31c0.62-0.13,1.4-1.56,1.04-1.53C551.93,322.79,550.52,324.66,551.23,324.31z"/>
						<path class="st2" d="M551.23,324.31C550.86,324.5,551.72,324.2,551.23,324.31L551.23,324.31z"/>
						<path class="st2" d="M564.8,330.21c0.47-0.73,0.26-1.58-0.1-0.7C564.48,330.04,564.41,330.78,564.8,330.21z"/>
						<path class="st2" d="M571,335.69l0.17-0.01C571.52,335.22,571.01,334.44,571,335.69z"/>
						<path class="st2" d="M545.03,322.39c0.25,0.02,1.36-0.09,0.49,0.43c-0.62,0.37-0.03,0.69,0.09,0.8
							c0.4,0.36,0.77,0.83,1.41,0.93c0.67,0.09,0.37,0.94,0.81,1.23c0.38,0.25,1.65-1.11,1.02,0c-0.52,0.58,0.67,0.64,0.52,0.78
							c-0.5,0.49,0.72,0.94,0.97,1.09c0.43,0.26,0.37,0.68,0.81,0.93c-0.02-0.12-0.01-0.52,0.24-0.7c0.25-0.18,0.43,0.24,0.54,0.3
							c0.19,0.09,0.23-0.29,0.46-0.18c0.15,0.07,0.09,0.45-0.12,0.76l-0.3-0.15c-0.16,0.76,0.03,0.87,0.54,0.86
							c0.5-0.02,0.05,0.55,0.35,0.68c0.39,0.17,0.93-0.4,1.39-0.55c0.41-0.13,0,0.8,0.03,1.13c0.08,0.85,1.16,0.13,1.54,0.63
							c0.22,0.28,0.18,0.35,0.46-0.31c0.18-0.43,0.47,0.44,0.59,0.5c0.51,0.22,0.62-0.13,0.28,1c-0.11,0.38,0.66-0.22,0.76-0.35
							c0.47-0.61,0.41-0.98,0.83-0.86c0.19,0.46,0.35-0.15,0.44-0.64c0.14-0.34,0.83-2.26,1.07-2.19c0.25,0.07-0.56,1.69-0.7,1.95
							c-0.11,0.22-0.62,1.32-0.79,1.27c-0.34,0.61-0.66,1.81,0.04,0.78c0.09,0.41-0.1,0.74,0.22,0.83c0.35-0.36,0.68-0.2,0.94-0.14
							c0.43,0.13,0.51,0.63,1.1,0.35c0.2-0.1,0.42-0.23,0.56-0.53c-0.16,0.6-0.21,1.27,0.03,1.48c0.05,0.04,0.57-1.8,0.64-2.03
							c-0.24,0.81-0.45,1.74-0.01,1.91c0.27,0.13,0.85,0.39,1.1-0.28c-0.04,0.45,0.16,0.73,0.37,0.84c0.33,0.19,0.27-0.12,0.44-0.57
							c0.01-0.03,0.23,0.77,0.31,0.79c0.18,0.06,0.62-0.92,0.75-1.16c0.08-0.15,0.39-0.74,0.17-0.76c-0.21-0.02-0.19-0.39-0.31-0.4
							c0.32,0.03,0.55,0.1,0.69,0.67c0.13,0.5-0.27,1-0.2,1.36c0.1,0.47,0.57-0.83,0.65-0.97c0.18-0.29,0.31,0.62,0.36,0.77
							c0.24,0.75,0.85,0.96,1.1-0.16c0.04-0.19,0.88,0.34,0.6,0.87c0.13-0.24,0.2-0.88,0.41-0.88c0.23-0.01,0.34,0.46,0.51,0.68
							c0.26,0.33,0.15-1.08,0.17-1.34c-0.02,0.34,0.31,0.28,0.28,0.86c-0.01,0.17-0.06,1.18,0.12,1.11c0.08-0.08,0.14-0.21,0.18-0.4
							l0.34-0.03c0.04,0.1,0.12-0.04,0.15-0.1c0.25-0.47,0.42-1.23,0.52-1.88c0.06-0.42-0.05-1.04,0.18-1.06
							c0,0.61-0.04,1.25-0.01,1.84c0.02,0.47,0.17,0.24,0.28,0.47c0.11,0.23-0.04,0.88,0.15,0.97c0.07,0.03,0.38,0.07,0.4-0.15
							c0.03-0.34-0.3-1.03-0.19-1.35c0.13-0.34,0.33,0.11,0.41,0.34c0.28,0.9,0.01,1.08,0.63,0.97c0.81-0.14,0.42-1.45,0.19-2.65
							c-0.18-0.65-0.23-1.46-0.26-2.2c-0.06-1.51-0.34,0.63-0.39,0.64c-0.04,0.01-0.05-1.17-0.06-1.3
							c-0.17,0.03-0.09,0.75-0.28,0.99c-0.29,0.38-0.62,0.21-0.93,0.47c-0.14,0.11-0.54,0.61-0.52-0.11
							c0.01-0.25,0.01-1.11,0.18-1.13c-0.35,0.04-0.76-0.11-1.12,0.22c-0.31,0.28-0.3,1.56-0.33,2.14c0.04-0.61-0.28-0.22-0.38-0.19
							c-0.1,0.03,0.01-0.89,0.01-0.89c0.03-0.43-0.02-2.22-0.38-1.26c-0.22,0.58-0.03,1.25-0.03,1.79c0,0.44-0.52,0.83-0.52,0.47
							c0-0.07,0.24-0.69,0.1-0.78c-0.12-0.08-0.35,0.38-0.44-0.07c-0.05-0.3-0.05-0.54,0-0.9c-0.08,0.58-0.32,3.78-0.88,2.88
							c-0.13-0.22,0.63-3.65,0.49-3.58c-0.3,0.16-0.53,1.71-0.72,2.04c0.09-0.17-0.04-1.46-0.09-1.59c-0.26-0.64-0.1,1.31-0.07,1.07
							c-0.03,0.34-0.4,0.19-0.43,0.33c-0.09,0.51-0.16,0.31-0.37,0.29c-0.01-0.34,0.15-1.92,0.43-1.45
							c0.14-0.58-0.01-1.69-0.33-1.02c-0.23,0.45-0.38,1.96-0.7,2.19c-0.01,0,0.02-0.1,0.06-0.25c0.04-0.16,0.09-0.37,0.14-0.58
							c0.1-0.43,0.17-0.87,0.08-0.91c-0.36-0.17-0.66,1.38-0.78,1.92c-0.27-0.02,0.09-0.64-0.15-0.74c-0.19-0.08-0.33-0.1-0.45-0.35
							c-0.13-0.24-0.27-0.6-0.25-1.06c0.01-0.34,0.15-0.7-0.08-0.69c-0.14,0.01-0.39,0.26-0.44-0.03c0.06-0.21,0.06-0.29-0.02-0.26
							c-0.23,0.01-0.43,0.29-0.69,0.47c-0.17,0.12-0.75,0.63-0.78,0.3c-0.01-0.11,0.31-0.83,0.31-0.83
							c-0.09,0.11-0.77,1.25-0.77,1.36c-0.03-0.42-0.56,0.29-0.58,0.06c-0.02-0.41,0.37-1.26,0.54-1.72
							c-0.13,0.35-0.21,0.49-0.41,0.71c0.38-0.43-0.2-1.15-0.26-1.2c-0.21-0.2-0.4-0.85-0.61,0.16c-0.48,1.13-0.38,0.31-1.03,1.24
							c-0.09,0.13-0.55,0.67-0.53,0.36c0.02-0.28,0.33-0.47,0.4-0.67c0.16-0.48-0.66,0.3-0.41-0.33c0.19-0.46,0.46-0.79,0.34-0.96
							c-0.1-0.14,0.3-0.66,0-0.77c-0.29,0.15-0.44,0.27-0.41-0.15c-0.22,0.43-1.16,2.01-1.08,2.32c0.12,0.44-0.63,1.82-0.6,0.99
							c0.37-1.45-0.53,0.57-0.84,0.26c-0.15-0.15,0.06-0.55,0.25-0.87c0.31-0.52,0.4-0.02,0.59-0.3c0.05-0.09,0.77-2.15,0.85-2.12
							c-0.09-0.03-0.92,1.27-0.79,0.74c0.07-0.3,0.15-0.53,0.15-0.77c-0.24,0.44-0.81,0.28-0.67-0.02c0.19-0.4,0.66-0.98,0.54-1.21
							c-0.31,0.52-0.3,0.02-0.51,0.29c-0.14,0.19-0.38,0.59-0.43,0.78c0.04,0.06,0.05,0.15,0.04,0.26
							c-0.29,0.42-1.37,1.27-1.73,1.51c0.24-0.37,0.57-0.98,0.64-1.33c-0.3-0.14,0.17-0.67,0.09-0.79
							c-0.15-0.19-1.62,1.89-2.02,1.49c0.4,0.14,1.44-1.61,1.77-2.17c0.43-0.74-0.1-0.34-0.42,0.13c0.32-0.46,1.4-2.09,0.45-1.16
							c-1.42,1.54,0.08-0.38-0.49-0.13c-0.77,0.31-0.94,1.02-0.64,1.2c0.26,0.15-0.98,1.22-1.22,1.43c0.15-0.44,0.28-0.93,0.5-1.38
							c0.22-0.43,0.58-0.81,0.81-1.23c0.17-0.3,0.19-0.69,0.33-0.88l-0.86,1.12c0-0.01,0.54-0.99,0.59-1.07
							c0.16-0.4-0.32-0.1-0.56,0.07c0.15-0.19-0.12-0.96-0.08-0.99c-0.74,0.55-1.18,1.62-1.79,2.23c-0.2,0.19-0.39,0.02-0.43-0.06
							c-0.04-0.08,0.29-0.38,0.33-0.53c0.21-0.65-0.8,0.33-0.98,0.41c-0.11,0.04-0.55-0.16-0.46-0.26c0.14-0.15,0.84-0.26,1.24-0.69
							c0.16-0.18,1.04-1.49,1.07-1.5c-0.23,0.12-1.68,1.38-1.91,1.63c-0.4,0.19-0.37-0.3-0.05-0.64c0.35-0.37,1.44-1.58,1.02-1.64
							c-0.18-0.03-0.5,0.1-0.49-0.15c0.01-0.15,0.37-0.32,0.37-0.38c0.03-0.28-1.32,0.51-1.58,0.56c-0.16,0.03,0.2-0.77,0.23-0.94
							c-0.1-0.09,0.41-0.83-0.36-0.25c-0.54,0.4-1.04,0.99-1.33,0.73c0.61-0.52,2.31-1.73,1.47-1.64c-0.28-0.24-2,1.6-2.56,1.73
							c-0.13,0.02,1.65-1.67,1.77-1.63c-0.25-0.09-1.96,1.27-2.43,1.47C545.62,321.72,544.09,322.36,545.03,322.39z"/>
						<path class="st2" d="M579.95,329.76c0.01-0.24-0.12-1.13-0.34-1.06C579.45,328.78,579.73,329.87,579.95,329.76z"/>
						<path class="st2" d="M583.91,333.07C583.91,333.5,584.05,332.56,583.91,333.07L583.91,333.07z"/>
						<path class="st2" d="M573.55,331.18c-0.17,0.03-0.11,1.61,0.01,1.65c0,0,0.66-0.38,0.42,0.41c-0.09,0.27-0.24-0.06-0.29,0.33
							c-0.09,0.71,0.17,1.59,0.49,1.88c0.36,0.37,0.95,0.24,1.24-0.19c0.15-0.22,0.02-1.82,0.44-1.15c0.16,0.24,0.11,0.84,0.27,1.13
							c0.16,0.3,0.47,0.11,0.62,0.05c0.3-0.12,0.2-0.57,0.41-0.82c0.21-0.25,0.36-0.01,0.61,0.12c0.25,0.14,1.61,0.58,1.34-0.48
							c-0.04-0.16-0.33-1.45-0.06-1.05c0.26,0.38,0.27,0.88,0.49,1.28c-0.12-0.23,0.04-1.11,0.49-0.13
							c0.22,0.46,0.09-0.38,0.21-0.45c0.27-0.13,0.61,0.52,0.9,0.54c0.17,0.01-0.08-0.75,0.16-0.6c0.36,0.22,0.64,0.58,0.96,0.43
							c0.17-0.08,0.14-0.68,0.17-0.7c0.25-0.12,0.61,0.12,0.87-0.04c0.24-0.14,0.59,0.18,0.59-0.35c0.06-0.14,0.07-0.32,0.03-0.55
							c-0.02-0.05-0.18,0.27-0.34,0.12c-0.24-0.23-0.47-0.54-0.69-0.84c-0.37-0.51-0.89-1.17-1.17-1.84c-0.18-0.42-0.4-0.81-0.64-1
							c-0.2-0.17,0.09,0.82,0.11,0.97c0.06,0.72-0.44-0.36-0.54-0.16c-0.03,0.06,0.03,0.5,0.1,0.58c-0.21-0.23-0.49-0.81-0.69-0.81
							c0,0,0.27,2.19,0.19,2.46c-0.25,0.99-0.35-0.78-0.48-0.71c-0.04,0.02,0.02,0.74-0.09,0.88c-0.1,0.12-0.25-0.25-0.34-0.44
							c-0.2-0.46-0.4-0.93-0.6-1.4c-0.01,0.16-0.14,1.6-0.21,1.52c-0.42-0.56,0-1.81-0.18-2.1c-0.21-0.38-0.62,1.4-0.9,0.15
							l0.36,1.59c-0.29,0.11-0.31-1.27-0.62-0.71c-0.16,0.28-0.21,0.39-0.09,0.98c-0.07,0.2-0.4,0.13-0.53,0.17
							c0.48-0.14,0.16-1.7-0.17-0.85c-0.1,0.24-0.27-0.45-0.38-0.48c-0.28-0.09-0.37,0.35-0.6,0.41c-0.11,0.03-0.73-1.12-0.71-0.18
							c0,0.31,0.21,1.13,0.17,1.29c-0.05,0.2-0.4-0.28-0.39,0.13c0,0.1,0.15,0.3,0.1,0.48c-0.06,0.21-0.73-1.29-0.75-1.59
							c0.2-0.03,0.67,0.81,0.54-0.49c-0.01-0.03-0.6-0.25-0.67-0.23c-0.17,0.03-0.34,0.25-0.38-0.3c-0.12,0.04-0.15-0.01-0.25,0.24
							C572.85,330.92,573.39,331.27,573.55,331.18z"/>
						<path class="st2" d="M590.27,323.89C590.54,324.14,590.35,323.77,590.27,323.89L590.27,323.89z"/>
						<path class="st2" d="M582.32,328.87c0.16-0.02,1.15,0.58,0.77,0.82c-0.51-0.48,0.29,1.94-0.09,1.28
							c-0.22-0.39-0.46-0.94-0.69-0.8c-0.06,0.04-0.19,0.13-0.09,0.38c0.44,1.08,1.09,0.75,1.53,1.22c0.31,0.32,0.6,1.37,0.9,1.27
							c0.21-0.07,0.42-0.21,0.58-0.38c0.17-0.17,0.2-0.83,0.55-0.63c0.23,0.14,0.32,0.23,0.26-0.33c-0.08,0.06,0.32-0.37,0.35-0.07
							c-0.01-0.05-0.06-0.25-0.1-0.43c-0.05-0.19-0.1-0.36-0.09-0.36c0.17,0.12,0.33,0.99,0.59,1.06c0.13,0.03,0.18-0.54,0.19-0.64
							c0.04-0.34-0.3-1.25-0.49-0.79c-0.41-0.69,0.23-0.11,0.12-0.5c-0.06-0.21-0.79-1.08-0.76-1.1c0.25-0.19,0.93,1.25,1.23,1.52
							c0.3,0.26,0.62,0.46,0.9,0.57c0.16,0.07,1.29-0.15,1.3-0.11c-0.01-0.05-0.75-0.84-0.86-1.03c0.27-0.24,0.72,0.64,0.99,0.58
							c0.33-0.07,0.2-0.58,0.13-1.01c-0.07-0.43,0.08-0.39,0.33,0.12c0.3,0.39,0.52,0.03,0.6-0.07c0.09-0.1,0.49-0.33,0.32-0.67
							c-0.08-0.15-0.57-0.86-0.21-0.62c0.98,0.63,1.04,0.44,0.07-0.57c0.19-0.22,0.63,0.59,0.86,0.7c0.12-0.13,0.74,0.08,0.79-0.09
							c0.04-0.17-1.44-1.26-0.55-1.12c0.45,0.05,0.75,0.65,1.02,0.29c0.17-0.23-0.44-0.69-0.51-1.18c-0.04-0.1-0.61-1-0.74-0.99
							c-0.16,0.02-0.74,0.29-1.21-0.31c-0.35-0.44,0.47-0.5-0.05-0.98c0.09-0.13-0.51-0.68-0.89-1.02c0.22,0.21,0.42,0.45,0.52,0.66
							c-0.23-0.44-0.96-0.47-1-0.32c-0.09,0.29,0.12,0.88,0.32,1.39c0.18,0.43,0.91,1.28,0.24,0.98c-0.67-0.48-0.59-0.03-0.18,0.48
							c-0.33-0.28-0.77-0.48-0.87-0.39c0.16-0.11-0.01-0.92-0.32-0.74c-0.16,0.1-0.49-0.01-0.61,0.13
							c-0.11,0.14,1.45,2.09,0.78,1.79c-0.61-0.31-1.51-2.24-1.67-1.29c-0.05,0.31,0.45,0.77,0.75,1.17
							c0.33,0.44,0.19,0.59,0.58,1.03c-0.17,0.16-0.82-0.86-0.99-1.09c-0.19-0.4-0.49-0.8-0.78-1.11c-0.23-0.24-0.12,0.18,0,0.36
							c0.32,0.51,1.12,1.09,1,1.65c-0.05,0.21-0.29,0.13-0.54-0.08c0.14-0.13-0.32-1.24-0.54-1.21c-0.03,0,0.07,0.46-0.15,0.2
							c-0.27-0.32-0.21-0.16-0.35-0.02c-0.15,0.15-0.31-0.35-0.48-0.24c-0.08,0.06-0.78,1.34-0.5,1.58
							c-0.12-0.09-0.22-0.41-0.35-0.52c-0.18-0.15-0.31,0.05-0.39,0.11c-0.2,0.15-0.57-0.09-0.72,0.12
							c-0.09,0.11,0.33,1.21,0.05,0.88c-0.18-0.21-0.75-0.75-0.49-0.16c-0.36-0.59-0.74,0.19-1.01,0.01
							c-0.43-0.3,0.07,1.48,0.41,1.82C581.8,329.72,582.22,328.88,582.32,328.87z"/>
						<path class="st2" d="M589.12,322.64c0.05,0.05,0.15,0.13,0.26,0.23C589.29,322.79,589.21,322.71,589.12,322.64z"/>
						<path class="st2" d="M592.42,321.72l0.07-0.13c-0.26-0.1-0.45-0.11-0.44,0.04C592.32,321.83,592.36,321.83,592.42,321.72z"/>
						<path class="st2" d="M592.65,320.33l0.05-0.13C591.34,319.37,592.52,320.67,592.65,320.33z"/>
						<path class="st2" d="M593.67,326.71c0.27-0.15,0.48-0.29,0.55-0.63c0.03-0.12-0.2-0.81,0.24-0.45
							c-0.21-0.28-0.07-0.83,0.08-0.68c0.13,0.13,0.16,0.43,0.09,0.44c0.45-0.05,0.69-0.63,0.9-0.91c0.25-0.34,0.84-0.74,0.09-1.39
							c-0.13-0.12,0.43,0.05,0.59,0.18c-0.61-0.87,0.79-0.65,0.85-1.06c0.04-0.27-1.78-1.41-2.51-1.93
							c0.01,0.02-0.04-0.02-0.21-0.16c-0.27-0.32-0.83-0.61-1.26-0.84c-0.06,0.14,0.54,0.5,0.64,0.71c0.2,0.43-0.57-0.08-0.86-0.16
							c-0.25-0.08,0.52,0.81,0.58,0.93c0.18,0.34-0.13,0.27-0.11,0.45c0-0.04,1.52,1.18,0.86,0.94c-0.25-0.09-1.5-0.89-1.43-1.08
							c-1-0.92-1.48-1.14-1.49-0.52c0,0.12-0.34,0.93-0.09,1.15c0.52,0.39,0.51-0.19,0.67-0.29c0.32-0.19,0.63,0.01,0.96,0.49
							c0.2,0.31,0.98,0.08,1.23,0.42c0.1,0.15-0.56,0.08-0.61,0.08c-0.22,0.04-0.07,0.33-0.17,0.39c-0.13,0.07-0.64-0.51-0.81-0.34
							c-0.12,0.11,0.11,0.3-0.12,0.3c-0.21,0.01-1.6-0.66-1.58-0.55c0,0.04,0.6,0.53,0.65,0.6c0.27,0.35,0.17,0.44,0.45,0.81
							c0.2,0.26,0.87,0.99,0.93,1.18c0.09,0.26-0.64-0.2-0.62-0.16c0.03,0.05,0.89,0.69,1.05,0.84c0.24,0.24,0.35,0.49,0.59,0.7
							c-0.49-0.42-1.03-0.94-1.54-1.15c0,0-0.21-0.03-0.41-0.12c-0.21-0.09-0.41-0.22-0.39-0.41c0.02-0.16,0.35,0.04,0.27-0.27
							c-0.07-0.26-0.25-0.57-0.46-0.86c-0.08-0.11-1.26-1.38-1.34-1.26c-0.05,0.08,0.99,1.14,1.13,1.3
							c-0.26-0.12-1.46-0.81-1.53-0.71c-0.08,0.12,1.04,1.05,1.19,1.19c0.07-0.1,0.58,0.72,0.7,0.87
							C591.79,325.18,593.24,326.95,593.67,326.71z"/>
						<path class="st2" d="M594.33,320.11c0.05,0.04,0.13,0.09,0.21,0.16C594.52,320.23,594.13,319.88,594.33,320.11z"/>
						<path class="st2" d="M595.58,320.9c0.46-0.24,0.51-0.02,1.38,0.42c0.56,0.28,0.56-0.16,0.59-0.37
							c0.12-0.53,0.56-1.46-0.93-1.98c0.1-0.34,0.71,0.33,1.08,0.27c0.11-0.36-1.23-0.87-1.71-1.02c-0.71-0.22-1.27-0.06-0.25,0.38
							c-0.35-0.13-3.04-0.88-2.67-0.55c0.98,0.46,3.05,1.35,2.85,2.02c-0.29-0.14-0.56-0.31-0.84-0.48
							c0.01-0.01,0.03-0.01,0.03-0.02c0,0.01-0.02,0.01-0.04,0.02c-0.57-0.36-1.13-0.73-1.78-1.03c-0.97-0.45,1.04,0.87,1.65,1.03
							c-0.38,0-1.32-0.18-0.79,0.11c0.42,0.23,0.84,0.47,1.08,0.78C595.25,320.47,595.47,320.96,595.58,320.9z"/>
						<path class="st2" d="M593.84,316.59c-0.68-0.11-0.25,0.2,0.28,0.4l0.04-0.14C594.1,316.77,593.94,316.67,593.84,316.59z"/>
					</g>
				</g>
			</g>
		</g>
		<g>
			<rect x="184.27" y="225.39" class="st16" width="58.09" height="121.51"/>
			<rect x="152.54" y="257.1" class="st16" width="121.51" height="58.09"/>
		</g>
		<path class="st31" d="M535.61,381.33l-173.15,49.74c-3.48,1-7.11-1.01-8.11-4.49l-80.37-279.8c-1-3.48,1.01-7.11,4.49-8.11
			l173.15-49.74c3.48-1,7.11,1.01,8.11,4.49l80.37,279.8C541.1,376.7,539.09,380.33,535.61,381.33z"/>
		<path class="st39" d="M500.65,343.3l-128.74,36.98c-3.48,1-7.11-1.01-8.11-4.49l-61.77-215.05c-0.7-2.45,0.71-5.01,3.16-5.71
			l132.46-38.05c2.45-0.7,5.01,0.71,5.71,3.16l61.77,215.05C506.14,338.67,504.13,342.31,500.65,343.3z"/>
		<circle class="st11" cx="442.66" cy="384" r="16.59"/>
		<g>
			
				<ellipse transform="matrix(0.9651 -0.2618 0.2618 0.9651 -63.2269 119.568)" class="st26" cx="417.13" cy="297.08" rx="51.94" ry="8.02"/>
			<path class="st3" d="M388.8,192.63c-28.9,7.84-45.98,37.63-38.14,66.53c7.84,28.9,37.63,45.98,66.53,38.14
				c28.9-7.84,45.98-37.63,38.14-66.53C447.49,201.87,417.7,184.79,388.8,192.63z"/>
			<path class="st31" d="M365.61,244.14l17.85-11.85c1.48,0.88,2.79,2.09,3.81,3.62c3.63,5.47,2.14,12.84-3.33,16.47
				c-5.47,3.63-12.84,2.14-16.47-3.33C366.45,247.53,365.85,245.85,365.61,244.14z"/>
			<path class="st31" d="M422.39,261.51c1.68,6.19,0.4,6.38-12.25,9.81c-10.84,2.94-13.85,3.91-15.53-2.28
				c-2.08-7.67-0.47-18.88,9.08-21.47C413.43,244.93,420.31,253.84,422.39,261.51z"/>
			
				<rect x="377.42" y="248.15" transform="matrix(0.9651 -0.2618 0.2618 0.9651 -58.8064 110.126)" class="st26" width="12.96" height="55.24"/>
			<path class="st26" d="M369.23,251.13c3.93,3.71,10.02,4.37,14.71,1.26c2.43-1.61,4.07-3.96,4.83-6.56L369.23,251.13z"/>
			<path class="st31" d="M435.71,230.54c-0.37,6.55-5.98,11.57-12.53,11.2c-6.55-0.37-11.57-5.98-11.2-12.53
				c0.1-1.83,0.63-3.54,1.46-5.05l21.39,1.2C435.48,226.96,435.82,228.71,435.71,230.54z"/>
			
				<rect x="428.55" y="234.28" transform="matrix(-0.9651 0.2618 -0.2618 -0.9651 923.4503 400.763)" class="st26" width="12.96" height="55.24"/>
			<path class="st26" d="M435.24,233.22c-1.52,5.18-6.44,8.84-12.06,8.52c-2.91-0.16-5.51-1.37-7.48-3.22L435.24,233.22z"/>
		</g>
	</g>
</g>
</svg>
