<?xml version="1.0" encoding="utf-8"?>
<!-- Generator: Adobe Illustrator 24.2.1, SVG Export Plug-In . SVG Version: 6.00 Build 0)  -->
<svg version="1.1" id="Layer_1" xmlns="http://www.w3.org/2000/svg" xmlns:xlink="http://www.w3.org/1999/xlink" x="0px" y="0px"
	 viewBox="0 0 458 458" style="enable-background:new 0 0 458 458;" xml:space="preserve">
<style type="text/css">
	.st0{fill:#EDC86E;}
	.st1{clip-path:url(#SVGID_2_);fill:#462E53;}
	.st2{clip-path:url(#SVGID_4_);fill:#AF8A6B;}
	.st3{clip-path:url(#SVGID_6_);fill:#784B2D;}
	.st4{clip-path:url(#SVGID_8_);fill:#AF8A6B;}
	.st5{clip-path:url(#SVGID_10_);fill:none;stroke:#462E53;stroke-width:6;stroke-miterlimit:10;}
	.st6{clip-path:url(#SVGID_12_);fill:none;stroke:#462E53;stroke-width:6;stroke-miterlimit:10;}
	.st7{opacity:0.82;clip-path:url(#SVGID_14_);fill:#D07E77;enable-background:new    ;}
	.st8{clip-path:url(#SVGID_16_);fill:none;stroke:#8D5B5B;stroke-width:5.3457;stroke-miterlimit:10;}
	.st9{clip-path:url(#SVGID_18_);fill:#462E53;}
	.st10{clip-path:url(#SVGID_20_);fill:none;stroke:#8D5B5B;stroke-width:5.3457;stroke-miterlimit:10;}
	.st11{clip-path:url(#SVGID_22_);fill:#AF8A6B;}
	.st12{opacity:0.82;clip-path:url(#SVGID_24_);fill:#D07E77;enable-background:new    ;}
	.st13{opacity:0.84;clip-path:url(#SVGID_26_);fill:#CCAE8D;enable-background:new    ;}
	.st14{clip-path:url(#SVGID_28_);fill:#462E53;}
</style>
<g id="Layer_2_1_">
	<g>
		<circle class="st0" cx="229" cy="229" r="187"/>
		<g>
			<g>
				<defs>
					<circle id="SVGID_1_" cx="229" cy="229" r="187"/>
				</defs>
				<clipPath id="SVGID_2_">
					<use xlink:href="#SVGID_1_"  style="overflow:visible;"/>
				</clipPath>
				<ellipse class="st1" cx="253" cy="165.5" rx="138" ry="131.5"/>
			</g>
			<g>
				<defs>
					<circle id="SVGID_3_" cx="229" cy="229" r="187"/>
				</defs>
				<clipPath id="SVGID_4_">
					<use xlink:href="#SVGID_3_"  style="overflow:visible;"/>
				</clipPath>
				<polygon class="st2" points="315.7,449.34 183.13,449.34 198.09,229.1 317.84,229.1 				"/>
			</g>
			<g>
				<defs>
					<circle id="SVGID_5_" cx="229" cy="229" r="187"/>
				</defs>
				<clipPath id="SVGID_6_">
					<use xlink:href="#SVGID_5_"  style="overflow:visible;"/>
				</clipPath>
				<path class="st3" d="M194.89,364.88C222.68,404.44,316,416,316,416l1.84-160.17c0,0-26.73,75.91-35.28,83.39
					C274,346.7,194.89,364.88,194.89,364.88z"/>
			</g>
			<g>
				<defs>
					<circle id="SVGID_7_" cx="229" cy="229" r="187"/>
				</defs>
				<clipPath id="SVGID_8_">
					<use xlink:href="#SVGID_7_"  style="overflow:visible;"/>
				</clipPath>
				<path class="st4" d="M141.43,201.3c0,19.24-14.97,34.21-14.97,54.53c0,90.88,76.98,120.81,103.71,120.81
					s87.67-32.07,87.67-120.81c0-85.53-22.45-128.3-87.67-128.3C176.71,127.53,141.43,161.74,141.43,201.3z"/>
			</g>
			<g>
				<defs>
					<circle id="SVGID_9_" cx="229" cy="229" r="187"/>
				</defs>
				<clipPath id="SVGID_10_">
					<use xlink:href="#SVGID_9_"  style="overflow:visible;"/>
				</clipPath>
				<path class="st5" d="M268.12,228.73c0-10.63-5.12-25.24-16.04-25.24c-12.09,0-16.04,14.62-16.04,25.24"/>
			</g>
			<g>
				<defs>
					<circle id="SVGID_11_" cx="229" cy="229" r="187"/>
				</defs>
				<clipPath id="SVGID_12_">
					<use xlink:href="#SVGID_11_"  style="overflow:visible;"/>
				</clipPath>
				<path class="st6" d="M186.12,228.73c0-10.63-5.12-25.24-16.04-25.24c-12.09,0-16.04,14.62-16.04,25.24"/>
			</g>
			<g>
				<defs>
					<circle id="SVGID_13_" cx="229" cy="229" r="187"/>
				</defs>
				<clipPath id="SVGID_14_">
					<use xlink:href="#SVGID_13_"  style="overflow:visible;"/>
				</clipPath>
				<ellipse class="st7" cx="265.98" cy="252.09" rx="24.06" ry="14.43"/>
			</g>
			<g>
				<defs>
					<circle id="SVGID_15_" cx="229" cy="229" r="187"/>
				</defs>
				<clipPath id="SVGID_16_">
					<use xlink:href="#SVGID_15_"  style="overflow:visible;"/>
				</clipPath>
				<path class="st8" d="M238.63,184.24c0,0,16.67-8.06,32.7,0.49"/>
			</g>
			<g>
				<defs>
					<circle id="SVGID_17_" cx="229" cy="229" r="187"/>
				</defs>
				<clipPath id="SVGID_18_">
					<use xlink:href="#SVGID_17_"  style="overflow:visible;"/>
				</clipPath>
				<path class="st9" d="M235.51,290c0,0-4.51,33.5-26.01,33.5c-21.51,0-25.3-33.5-25.3-33.5H235.51z"/>
			</g>
			<g>
				<defs>
					<circle id="SVGID_19_" cx="229" cy="229" r="187"/>
				</defs>
				<clipPath id="SVGID_20_">
					<use xlink:href="#SVGID_19_"  style="overflow:visible;"/>
				</clipPath>
				<path class="st10" d="M215.2,264.38c-6.41,1.07-17.11-3.21-18.59-11.49c-1.49-8.28,15.39-22.72,15.39-39.83
					c0-16.04-11.76-29.94-36.35-29.94c-14.76,0-22.99,4.81-22.99,4.81"/>
			</g>
			<g>
				<defs>
					<circle id="SVGID_21_" cx="229" cy="229" r="187"/>
				</defs>
				<clipPath id="SVGID_22_">
					<use xlink:href="#SVGID_21_"  style="overflow:visible;"/>
				</clipPath>
				<path class="st11" d="M300.73,205.58c0,0,10.52-9.78,21.38-9.62c6.52,0.09,18.18,9.72,18.18,18.18
					c0,20.31-7.48,33.14-17.11,34.21c-9.62,1.07-17.11-6.41-17.11-6.41L300.73,205.58z"/>
			</g>
			<g>
				<defs>
					<circle id="SVGID_23_" cx="229" cy="229" r="187"/>
				</defs>
				<clipPath id="SVGID_24_">
					<use xlink:href="#SVGID_23_"  style="overflow:visible;"/>
				</clipPath>
				<path class="st12" d="M129.8,238.45c-1.94,5.48-3.33,11.18-3.33,17.38c0,3.11,0.1,6.14,0.27,9.11
					c3.29,1.01,7.01,1.58,10.95,1.58c13.29,0,24.06-6.46,24.06-14.43s-10.77-14.43-24.06-14.43
					C134.92,237.65,132.27,237.94,129.8,238.45z"/>
			</g>
			<g>
				<defs>
					<circle id="SVGID_25_" cx="229" cy="229" r="187"/>
				</defs>
				<clipPath id="SVGID_26_">
					<use xlink:href="#SVGID_25_"  style="overflow:visible;"/>
				</clipPath>
				<path class="st13" d="M135.01,255.83c0-20.31,14.97-35.28,14.97-54.53c0-38.56,33.54-72.03,84.75-73.69
					c-1.5-0.05-3.01-0.08-4.56-0.08c-53.46,0-88.74,34.21-88.74,73.77c0,19.24-14.97,34.21-14.97,54.53
					c0,90.88,76.98,120.81,103.71,120.81c1.31,0,2.69-0.08,4.15-0.23C204.44,373.47,135.01,342.13,135.01,255.83z"/>
			</g>
			<g>
				<defs>
					<circle id="SVGID_27_" cx="229" cy="229" r="187"/>
				</defs>
				<clipPath id="SVGID_28_">
					<use xlink:href="#SVGID_27_"  style="overflow:visible;"/>
				</clipPath>
				<path class="st14" d="M249,121c0,0-34,48-70,48s-46-24-46-24L249,121z"/>
			</g>
		</g>
	</g>
</g>
</svg>
