[
  [
    {
      "category": "InternetInfrastructure",
      "label": "Shared hotspot",
      "id": "SharedHotspot",
      "price": 400,
      "upkeep": 10
    },
    {
      "category": "ElectricalFacilities",
      "label": "Individual Generator",
      "id": "IndividualGenerator",
      "price": 4000,
      "upkeep": 20
    },
    {
      "category": "Healthcare",
      "label": "First aid kit",
      "id": "FirstAidKit",
      "price": 500,
      "upkeep": 25
    },
    {
      "category": "WaterSystem",
      "label": "Wells",
      "id": "Wells",
      "price": 3000,
      "upkeep": 20
    }
  ],
  [
    {
      "category": "TransportInfrastructure",
      "label": "Unpaved roads",
      "id": "UnpavedRoads",
      "price": 100000,
      "upkeep": 30
    },
    {
      "category": "Education",
      "label": "Tiny Library",
      "id": "BookHouse",
      "price": 7500,
      "upkeep": 15
    },
    {
      "category": "OutdoorFacilities",
      "label": "Flower bed",
      "id": "FlowerBed",
      "price": 60000,
      "upkeep": 25
    },
    {
      "category": "InternetInfrastructure",
      "label": "Starlink",
      "id": "Starlink",
      "price": 30000,
      "upkeep": 25
    },
    {
      "category": "Firefighting",
      "label": "Fire Extinguishers",
      "id": "FireExtinguishers",
      "price": 13000,
      "upkeep": 35
    },
    {
      "category": "LawEnforcement",
      "label": "Neighborhood Watch",
      "id": "NeighborhoodWatch",
      "price": 50000,
      "upkeep": 40
    }
  ],
  [
    {
      "category": "CulturePlaces",
      "label": "Graffiti wall",
      "id": "GraffitiWall",
      "price": 80000,
      "upkeep": 20
    },
    {
      "category": "Education",
      "label": "Daycare",
      "id": "Daycare",
      "price": 800000,
      "upkeep": 50
    },
    {
      "category": "EntertainmentFacilities",
      "label": "Gazebo",
      "id": "Gazebo",
      "price": 500000,
      "upkeep": 35
    },
    {
      "category": "ElectricalFacilities",
      "label": "Shared Generator",
      "id": "SharedGenerator",
      "price": 300000,
      "upkeep": 35
    },
    {
      "category": "Healthcare",
      "label": "Nurse visit",
      "id": "NurseVisit",
      "price": 150000,
      "upkeep": 60
    },
    {
      "category": "LawEnforcement",
      "label": "Guards",
      "id": "Guards",
      "price": 170000,
      "upkeep": 60
    },
    {
      "category": "WaterSystem",
      "label": "Drinking Fountains",
      "id": "DrinkingFountain",
      "price": 600000,
      "upkeep": 25
    }
  ],
  [
    {
      "category": "TransportInfrastructure",
      "label": "Gravel roads",
      "id": "GravelRoads",
      "price": 4000000,
      "upkeep": 45
    },
    {
      "category": "CulturePlaces",
      "label": "Artist residency program",
      "id": "ArtistResidency",
      "price": 2000000,
      "upkeep": 55
    },
    {
      "category": "Education",
      "label": "Primary School",
      "id": "PrimarySchool",
      "price": 3500000,
      "upkeep": 80
    },
    {
      "category": "OutdoorFacilities",
      "label": "Dog park",
      "id": "DogPark",
      "price": 1000000,
      "upkeep": 45
    },
    {
      "category": "EntertainmentFacilities",
      "label": "Open air theater",
      "id": "OpenAirTheater",
      "price": 2750000,
      "upkeep": 70
    },
    {
      "category": "Firefighting",
      "label": "Fire Hydrants",
      "id": "FireHydrant",
      "price": 6000000,
      "upkeep": 50
    },
    {
      "category": "Healthcare",
      "label": "Doctor office",
      "id": "DoctorVisit",
      "price": 3000000,
      "upkeep": 125
    },
    {
      "category": "LawEnforcement",
      "label": "Gate",
      "id": "Gate",
      "price": 1500000,
      "upkeep": 55
    }
  ],
  [
    {
      "category": "TransportInfrastructure",
      "label": "Tarmac roads",
      "id": "TarmacRoads",
      "price": 100000000,
      "upkeep": 55
    },
    {
      "category": "CulturePlaces",
      "label": "Workshop",
      "id": "Workshop",
      "price": 5000000,
      "upkeep": 100
    },
    {
      "category": "Education",
      "label": "High school",
      "id": "HighSchool",
      "price": 10000000,
      "upkeep": 200
    },
    {
      "category": "OutdoorFacilities",
      "label": "Playground",
      "id": "Playground",
      "price": 7500000,
      "upkeep": 55
    },
    {
      "category": "EntertainmentFacilities",
      "label": "Community Center",
      "id": "CommunityCenter",
      "price": 9000000,
      "upkeep": 135
    },
    {
      "category": "InternetInfrastructure",
      "label": "Internet Cafe",
      "id": "Microwave",
      "price": 7000000,
      "upkeep": 135
    },
    {
      "category": "LawEnforcement",
      "label": "Police Station",
      "id": "PoliceStation",
      "price": 12000000,
      "upkeep": 160
    },
    {
      "category": "WaterSystem",
      "label": "Sewage",
      "id": "Sewage",
      "price": 100000000,
      "upkeep": 100
    }
  ],
  [
    {
      "category": "TransportInfrastructure",
      "label": "Traffic lights",
      "id": "TrafficLights",
      "price": 180000000,
      "upkeep": 110
    },
    {
      "category": "CulturePlaces",
      "label": "Sculpture park",
      "id": "SculpturePark",
      "price": 75000000,
      "upkeep": 100
    },
    {
      "category": "OutdoorFacilities",
      "label": "Garden",
      "id": "Garden",
      "price": 100000000,
      "upkeep": 100
    },
    {
      "category": "EntertainmentFacilities",
      "label": "Town hall",
      "id": "TownHall",
      "price": 200000000,
      "upkeep": 175
    },
    {
      "category": "ElectricalFacilities",
      "label": "Overhead power",
      "id": "OverheadPower",
      "price": 100000000,
      "upkeep": 100
    },
    {
      "category": "Healthcare",
      "label": "Clinic",
      "id": "Clinic",
      "price": 150000000,
      "upkeep": 250
    },
    {
      "category": "LawEnforcement",
      "label": "Department office",
      "id": "DepartmentOffice",
      "price": 125000000,
      "upkeep": 200
    },
    {
      "category": "WaterSystem",
      "label": "Indoor plumbing",
      "id": "IndoorPlumbing",
      "price": 200000000,
      "upkeep": 150
    }
  ],
  [
    {
      "category": "TransportInfrastructure",
      "label": "Tram",
      "id": "Tram",
      "price": 500000000,
      "upkeep": 75
    },
    {
      "category": "CulturePlaces",
      "label": "Art museum",
      "id": "ArtMuseum",
      "price": 500000000,
      "upkeep": 300
    },
    {
      "category": "Education",
      "label": "Small university",
      "id": "SmallUniversity",
      "price": 300000000,
      "upkeep": 350
    },
    {
      "category": "OutdoorFacilities",
      "label": "Small parks",
      "id": "SmallParks",
      "price": 75000000,
      "upkeep": 150
    },
    {
      "category": "EntertainmentFacilities",
      "label": "Theater",
      "id": "Theater",
      "price": 230000000,
      "upkeep": 290
    },
    {
      "category": "InternetInfrastructure",
      "label": "Fiber uplink",
      "id": "FiberUplink",
      "price": 80000000,
      "upkeep": 110
    },
    {
      "category": "Firefighting",
      "label": "Pickup Truck",
      "id": "PickupTruck",
      "price": 10000000,
      "upkeep": 150
    },
    {
      "category": "Healthcare",
      "label": "Hospital",
      "id": "Hospital",
      "price": 575000000,
      "upkeep": 450
    }
  ],
  [
    {
      "category": "TransportInfrastructure",
      "label": "Metro",
      "id": "Metro",
      "price": 750000000,
      "upkeep": 300
    },
    {
      "category": "CulturePlaces",
      "label": "Gallery district",
      "id": "GalleryDistrict",
      "price": 300000000,
      "upkeep": 300
    },
    {
      "category": "Education",
      "label": "Campus university",
      "id": "CampusUniversity",
      "price": 250000000,
      "upkeep": 300
    },
    {
      "category": "OutdoorFacilities",
      "label": "Central park",
      "id": "CentralPark",
      "price": 150000000,
      "upkeep": 300
    },
    {
      "category": "EntertainmentFacilities",
      "label": "Opera building",
      "id": "OperaBuilding",
      "price": 180000000,
      "upkeep": 300
    },
    {
      "category": "InternetInfrastructure",
      "label": "Internet exchange",
      "id": "InternetExchange",
      "price": 100000000,
      "upkeep": 300
    },
    {
      "category": "ElectricalFacilities",
      "label": "Underground power",
      "id": "UndergroundPower",
      "price": 85000000,
      "upkeep": 300
    },
    {
      "category": "Firefighting",
      "label": "Ladder truck",
      "id": "LadderTruck",
      "price": 20000000,
      "upkeep": 300
    },
    {
      "category": "Healthcare",
      "label": "Medical university",
      "id": "MedicalUniversity",
      "price": 500000000,
      "upkeep": 300
    },
    {
      "category": "LawEnforcement",
      "label": "Courthouses",
      "id": "Courthouse",
      "price": 50000000,
      "upkeep": 300
    }
  ]
]