{
  "displayDebug": true,
  "chosenAction": null,
  "turn": 7,
  "tick": 15,
  "displayTweet": true,
  "displayAnswer": true,
  "displayNewTurn": false,
  "isGameDone": false,
  "showCard": true,
  "showIntroScreen": false,
  "showGameOverScreen": false,
  "showStatsModal": false,
  "showReachGoalModal": false,
  "reachGoalShown": false,
  "tweets": [
    {
      "type": "infra",
      "author": "@citizen273",
      "message": "We need better education #knowledge #education #learning",
      "category": "Education",
      "service": {
        "category": "Education",
        "label": "Tiny Library",
        "id": "BookHouse",
        "price": 300,
        "upkeep": 3,
        "level": 1,
        "illustrationPath": "/cards/Education_BookHouse_Education.png"
      },
      "id": 150
    },
    {
      "type": "infra",
      "author": "@citizen14",
      "message": "We need better Firefighting #service #burn",
      "category": "Firefighting",
      "service": {
        "category": "Firefighting",
        "label": "Fire Extinguishers",
        "id": "FireExtinguishers",
        "price": 500,
        "upkeep": 3,
        "level": 1,
        "illustrationPath": "/cards/Firefighting_FireExtinguishers.png"
      },
      "id": 136
    },
    {
      "type": "answer",
      "author": "@newCityCorpCEO",
      "message": "Coming soon! #yougotit #thanksforthesuggestion",
      "originalTweet": {
        "type": "infra",
        "author": "@citizen14",
        "message": "We need better Firefighting #service #burn",
        "category": "Firefighting",
        "service": {
          "category": "Firefighting",
          "label": "Fire Extinguishers",
          "id": "FireExtinguishers",
          "price": 500,
          "upkeep": 3,
          "level": 1,
          "illustrationPath": "/cards/Firefighting_FireExtinguishers.png"
        },
        "id": 136
      },
      "id": 143
    },
    {
      "type": "plot",
      "author": "@realEstateDaily",
      "message": "New Soweto is very trendy. Everybody wants their plot!",
      "impact": {
        "newPlots": 500,
        "cost": 0
      },
      "illustrationPath": "/other-cards/Expand_02.png",
      "id": 126
    },
    {
      "type": "answer",
      "author": "@newCityCorpCEO",
      "message": "Let's expand the city!",
      "originalTweet": {
        "type": "plot",
        "author": "@realEstateDaily",
        "message": "New Soweto is very trendy. Everybody wants their plot!",
        "impact": {
          "newPlots": 500,
          "cost": 0
        },
        "illustrationPath": "/other-cards/Expand_02.png",
        "id": 126
      },
      "id": 131
    },
    {
      "type": "infra",
      "author": "@citizen66",
      "message": "We need better transport infrastructure #transit",
      "category": "TransportInfrastructure",
      "service": {
        "category": "TransportInfrastructure",
        "label": "Unpaved roads",
        "id": "UnpavedRoads",
        "price": 5000,
        "upkeep": 3,
        "level": 1,
        "illustrationPath": "/cards/TransportInfrastructure_UnpavedRoads.png"
      },
      "id": 112
    },
    {
      "type": "answer",
      "author": "@newCityCorpCEO",
      "message": "Coming soon! #yougotit #thanksforthesuggestion",
      "originalTweet": {
        "type": "infra",
        "author": "@citizen66",
        "message": "We need better transport infrastructure #transit",
        "category": "TransportInfrastructure",
        "service": {
          "category": "TransportInfrastructure",
          "label": "Unpaved roads",
          "id": "UnpavedRoads",
          "price": 5000,
          "upkeep": 3,
          "level": 1,
          "illustrationPath": "/cards/TransportInfrastructure_UnpavedRoads.png"
        },
        "id": 112
      },
      "id": 119
    },
    {
      "type": "contract",
      "author": "@landOwner2",
      "message": "What about making money from the new plot sales?",
      "impact": {
        "contractLevel": 3
      },
      "actionHints": {
        "left": "No",
        "right": "Yes!"
      },
      "illustrationPath": "/other-cards/StockGiveaway.png",
      "id": 111
    },
    {
      "type": "plot",
      "author": "@realEstateDaily",
      "message": "New Soweto is very trendy. Everybody wants their plot!",
      "impact": {
        "newPlots": 50,
        "cost": 0
      },
      "illustrationPath": "/other-cards/Expand_01.png",
      "id": 101
    },
    {
      "type": "answer",
      "author": "@newCityCorpCEO",
      "message": "Let's expand the city!",
      "originalTweet": {
        "type": "plot",
        "author": "@realEstateDaily",
        "message": "New Soweto is very trendy. Everybody wants their plot!",
        "impact": {
          "newPlots": 50,
          "cost": 0
        },
        "illustrationPath": "/other-cards/Expand_01.png",
        "id": 101
      },
      "id": 106
    },
    {
      "type": "infra",
      "author": "@citizen6",
      "message": "We need better electrical facilities #electricity #light #noMoreDarkness",
      "category": "ElectricalFacilities",
      "service": {
        "category": "ElectricalFacilities",
        "label": "Individual Generator",
        "id": "IndividualGenerator",
        "price": 1500,
        "upkeep": 3,
        "level": 0,
        "illustrationPath": "/cards/ElectricalFacilities_IndividualGenerator.png"
      },
      "id": 87
    },
    {
      "type": "answer",
      "author": "@newCityCorpCEO",
      "message": "Coming soon! #yougotit #thanksforthesuggestion",
      "originalTweet": {
        "type": "infra",
        "author": "@citizen6",
        "message": "We need better electrical facilities #electricity #light #noMoreDarkness",
        "category": "ElectricalFacilities",
        "service": {
          "category": "ElectricalFacilities",
          "label": "Individual Generator",
          "id": "IndividualGenerator",
          "price": 1500,
          "upkeep": 3,
          "level": 0,
          "illustrationPath": "/cards/ElectricalFacilities_IndividualGenerator.png"
        },
        "id": 87
      },
      "id": 94
    },
    {
      "type": "contract",
      "author": "@landOwner2",
      "message": "Maybe we can stop giving part of the city and just provide the plots for free?",
      "impact": {
        "contractLevel": 2
      },
      "actionHints": {
        "left": "No",
        "right": "Yes!"
      },
      "illustrationPath": "/other-cards/StockGiveaway.png",
      "id": 86
    },
    {
      "type": "plot",
      "author": "@realEstateDaily",
      "message": "New Soweto is very trendy. Everybody wants their plot!",
      "impact": {
        "newPlots": 50,
        "cost": 0
      },
      "illustrationPath": "/other-cards/Expand_01-B.png",
      "id": 72
    },
    {
      "type": "answer",
      "author": "@newCityCorpCEO",
      "message": "Let's expand the city!",
      "originalTweet": {
        "type": "plot",
        "author": "@realEstateDaily",
        "message": "New Soweto is very trendy. Everybody wants their plot!",
        "impact": {
          "newPlots": 50,
          "cost": 0
        },
        "illustrationPath": "/other-cards/Expand_01-B.png",
        "id": 72
      },
      "id": 79
    },
    {
      "type": "infra",
      "author": "@citizen25",
      "message": "We need better healthcare #publicHealth #health",
      "category": "Healthcare",
      "service": {
        "category": "Healthcare",
        "label": "First aid kit",
        "id": "FirstAidKit",
        "price": 50,
        "upkeep": 3,
        "level": 0,
        "illustrationPath": "/cards/Healthcare_FirstAidKit.png"
      },
      "id": 58
    },
    {
      "type": "answer",
      "author": "@newCityCorpCEO",
      "message": "Coming soon! #yougotit #thanksforthesuggestion",
      "originalTweet": {
        "type": "infra",
        "author": "@citizen25",
        "message": "We need better healthcare #publicHealth #health",
        "category": "Healthcare",
        "service": {
          "category": "Healthcare",
          "label": "First aid kit",
          "id": "FirstAidKit",
          "price": 50,
          "upkeep": 3,
          "level": 0,
          "illustrationPath": "/cards/Healthcare_FirstAidKit.png"
        },
        "id": 58
      },
      "id": 65
    },
    {
      "type": "infra",
      "author": "@citizen4",
      "message": "We need better water system #saveThePlanet #water #facilities",
      "category": "WaterSystem",
      "service": {
        "category": "WaterSystem",
        "label": "Wells",
        "id": "Wells",
        "price": 1250,
        "upkeep": 3,
        "level": 0,
        "illustrationPath": "/cards/WaterSystem_Wells.png"
      },
      "id": 38
    },
    {
      "type": "answer",
      "author": "@newCityCorpCEO",
      "message": "Coming soon! #yougotit #thanksforthesuggestion",
      "originalTweet": {
        "type": "infra",
        "author": "@citizen4",
        "message": "We need better water system #saveThePlanet #water #facilities",
        "category": "WaterSystem",
        "service": {
          "category": "WaterSystem",
          "label": "Wells",
          "id": "Wells",
          "price": 1250,
          "upkeep": 3,
          "level": 0,
          "illustrationPath": "/cards/WaterSystem_Wells.png"
        },
        "id": 38
      },
      "id": 51
    },
    {
      "type": "infra",
      "author": "@citizen1",
      "message": "We need better Internet #speed #work",
      "category": "InternetInfrastructure",
      "service": {
        "category": "InternetInfrastructure",
        "label": "Shared hotspot",
        "id": "SharedHotspot",
        "price": 100,
        "upkeep": 3,
        "level": 0,
        "illustrationPath": "/cards/InternetInfrastructure_SharedHotspot.png"
      },
      "id": 20
    },
    {
      "type": "answer",
      "author": "@newCityCorpCEO",
      "message": "Coming soon! #yougotit #thanksforthesuggestion",
      "originalTweet": {
        "type": "infra",
        "author": "@citizen1",
        "message": "We need better Internet #speed #work",
        "category": "InternetInfrastructure",
        "service": {
          "category": "InternetInfrastructure",
          "label": "Shared hotspot",
          "id": "SharedHotspot",
          "price": 100,
          "upkeep": 3,
          "level": 0,
          "illustrationPath": "/cards/InternetInfrastructure_SharedHotspot.png"
        },
        "id": 20
      },
      "id": 31
    },
    {
      "type": "contract",
      "author": "@landOwner2",
      "message": "No one wants to come yet. Maybe we should give some ownership to the first citizens?",
      "impact": {
        "contractLevel": 1
      },
      "actionHints": {
        "left": "No",
        "right": "Yes!"
      },
      "illustrationPath": "/other-cards/StockGiveaway.png",
      "id": 19
    },
    {
      "type": "plot",
      "author": "@realEstateDaily",
      "message": "A new city is being built. Let's hope new plots will be available soon.",
      "impact": {
        "newPlots": 50,
        "cost": 0
      },
      "illustrationPath": "/other-cards/Expand_01-B.png",
      "id": 9
    },
    {
      "type": "answer",
      "author": "@newCityCorpCEO",
      "message": "Let's expand the city!",
      "originalTweet": {
        "type": "plot",
        "author": "@realEstateDaily",
        "message": "A new city is being built. Let's hope new plots will be available soon.",
        "impact": {
          "newPlots": 50,
          "cost": 0
        },
        "illustrationPath": "/other-cards/Expand_01-B.png",
        "id": 9
      },
      "id": 14
    },
    {
      "type": "intro",
      "author": "@landOwner2",
      "message": "We also have 2 hectares for sale very close to the airport at $2m. We're flexible on the payment.",
      "actionHints": {
        "left": "No deal",
        "right": "Deal!"
      },
      "cost": {
        "money": 0,
        "stocks": 2000
      },
      "isLastIntroTweet": true,
      "illustrationPath": "/other-cards/BuildHere_SecondOption.png",
      "id": 5
    },
    {
      "type": "answer",
      "author": "@newCityCorpCEO",
      "message": "Thanks! What about 20% stake in the city?",
      "originalTweet": {
        "type": "intro",
        "author": "@landOwner2",
        "message": "We also have 2 hectares for sale very close to the airport at $2m. We're flexible on the payment.",
        "actionHints": {
          "left": "No deal",
          "right": "Deal!"
        },
        "cost": {
          "money": 0,
          "stocks": 2000
        },
        "isLastIntroTweet": true,
        "illustrationPath": "/other-cards/BuildHere_SecondOption.png",
        "id": 5
      },
      "id": 8
    },
    {
      "type": "intro",
      "author": "@landOwner1",
      "message": "We have 2 hectares for sale 2 hours from the airport at $2m.",
      "actionHints": {
        "left": "No deal",
        "right": "Deal!"
      },
      "cost": {
        "money": 2000000,
        "stocks": 0
      },
      "isLastIntroTweet": false,
      "illustrationPath": "/other-cards/BuildHere_FirstOption.png",
      "id": 1
    },
    {
      "type": "answer",
      "author": "@newCityCorpCEO",
      "message": "Thanks for the offer. I'm not interested at this price",
      "originalTweet": {
        "type": "intro",
        "author": "@landOwner1",
        "message": "We have 2 hectares for sale 2 hours from the airport at $2m.",
        "actionHints": {
          "left": "No deal",
          "right": "Deal!"
        },
        "cost": {
          "money": 2000000,
          "stocks": 0
        },
        "isLastIntroTweet": false,
        "illustrationPath": "/other-cards/BuildHere_FirstOption.png",
        "id": 1
      },
      "id": 4
    }
  ],
  "showPickCityName": false,
  "displayNewLevel": false
}
